<?xml version="1.0"?>
<VTKFile type="PolyData" version="0.1" byte_order="LittleEndian">
  <PolyData>
    <Piece NumberOfPoints="     19" NumberOfVerts="  0" NumberOfLines="     18"
           NumberOfStrips="  0" NumberOfPolys="      0">
      <Points>
        <DataArray type="Float32" NumberOfComponents="3" format="ascii">
                      -5.12892                      -1.29767                      89.25821
                      -5.24883                      -2.47802                      88.57975
                      -5.51773                      -4.78988                      87.14277
                      -5.80006                      -7.07802                      85.66695
                      -6.16035                      -9.92312                      83.79753
                      -6.52764                     -13.40880                      81.66830
                      -6.85881                     -16.95853                      79.64428
                      -7.18897                     -20.50741                      77.61848
                      -7.51499                     -24.05662                      75.59238
                      -7.83723                     -27.60542                      73.56476
                      -8.15674                     -31.15219                      71.53303
                      -8.47219                     -34.69798                      69.49886
                      -8.78383                     -38.24307                      67.46278
                      -9.09209                     -41.78765                      65.42524
                      -9.39511                     -45.33188                      63.38625
                      -9.64346                     -48.28522                      61.68607
                      -9.83918                     -50.65171                      60.33213
                     -10.02955                     -53.04599                      59.02486
                     -10.12764                     -54.22179                      58.33530
        </DataArray>
      </Points>
      <PointData>
        <DataArray type="Float32" Name="TranslationalVelocity" NumberOfComponents="3" format="ascii">
                       0.01433                       0.00026                       0.00106
                       0.01385                       0.00131                      -0.00069
                       0.01318                       0.00350                      -0.00409
                       0.01311                       0.00570                      -0.00749
                       0.01425                       0.00843                      -0.01190
                       0.01806                       0.01156                      -0.01777
                       0.02527                       0.01463                      -0.02442
                       0.03654                       0.01784                      -0.03193
                       0.05230                       0.02122                      -0.04042
                       0.07268                       0.02482                      -0.04995
                       0.09740                       0.02864                      -0.06046
                       0.12567                       0.03267                      -0.07183
                       0.15610                       0.03688                      -0.08379
                       0.18659                       0.04122                      -0.09596
                       0.21424                       0.04566                      -0.10781
                       0.23225                       0.04937                      -0.11692
                       0.24159                       0.05230                      -0.12339
                       0.24464                       0.05505                      -0.12887
                       0.24329                       0.05648                      -0.13107
        </DataArray>
        <DataArray type="Float32" Name="RotationalVelocity" NumberOfComponents="3" format="ascii">
                       0.00155                       0.00060                      -0.00013
                       0.00154                       0.00057                      -0.00007
                       0.00155                       0.00048                       0.00008
                       0.00157                       0.00036                       0.00032
                       0.00163                       0.00016                       0.00072
                       0.00176                      -0.00016                       0.00137
                       0.00193                      -0.00055                       0.00217
                       0.00215                      -0.00102                       0.00309
                       0.00238                      -0.00155                       0.00405
                       0.00261                      -0.00212                       0.00496
                       0.00281                      -0.00269                       0.00572
                       0.00295                      -0.00323                       0.00622
                       0.00302                      -0.00364                       0.00635
                       0.00300                      -0.00383                       0.00596
                       0.00287                      -0.00367                       0.00492
                       0.00269                      -0.00316                       0.00350
                       0.00249                      -0.00241                       0.00191
                       0.00226                      -0.00129                      -0.00010
                       0.00213                      -0.00056                      -0.00128
        </DataArray>
        <DataArray type="Float32" Name="TranslationalAcceleration" NumberOfComponents="3" format="ascii">
                       0.11623                       0.00152                       0.11784
                       0.02086                       0.00081                       0.03712
                       0.03894                       0.00039                       0.09586
                       0.03561                      -0.00311                       0.13793
                       0.01868                      -0.01186                       0.17489
                       0.00688                      -0.02587                       0.20156
                       0.02327                      -0.04008                       0.21611
                       0.06965                      -0.05128                       0.22187
                       0.13899                      -0.05496                       0.21746
                       0.21088                      -0.04651                       0.19960
                       0.24986                      -0.02144                       0.16472
                       0.20581                       0.02468                       0.10979
                       0.01196                       0.09563                       0.03449
                      -0.41606                       0.19447                      -0.05738
                      -1.18167                       0.32391                      -0.15804
                      -2.17628                       0.45656                      -0.23752
                      -3.24690                       0.57790                      -0.29081
                      -4.57649                       0.70920                      -0.33045
                      -5.40404                       0.78299                      -0.33476
        </DataArray>
        <DataArray type="Float32" Name="OrientationX" NumberOfComponents="3" format="ascii">
                       0.94933                       0.07841                      -0.30433
                       0.94934                       0.07848                      -0.30429
                       0.94936                       0.07871                      -0.30417
                       0.94939                       0.07904                      -0.30399
                       0.94944                       0.07956                      -0.30371
                       0.95864                       0.06440                      -0.27722
                       0.96470                       0.05371                      -0.25781
                       0.96959                       0.04455                      -0.24066
                       0.97433                       0.03486                      -0.22243
                       0.97875                       0.02493                      -0.20354
                       0.98252                       0.01567                      -0.18551
                       0.98585                       0.00655                      -0.16751
                       0.98853                      -0.00154                      -0.15103
                       0.99036                      -0.00732                      -0.13831
                       0.99197                      -0.01302                      -0.12576
                       0.99317                      -0.01786                      -0.11529
                       0.99397                      -0.02149                      -0.10752
                       0.99439                      -0.02320                      -0.10324
                       0.99441                      -0.02294                      -0.10311
        </DataArray>
        <DataArray type="Float32" Name="OrientationY" NumberOfComponents="3" format="ascii">
                       0.30200                      -0.49558                       0.81437
                       0.30199                      -0.49571                       0.81429
                       0.30195                      -0.49607                       0.81409
                       0.30192                      -0.49651                       0.81383
                       0.30187                      -0.49714                       0.81346
                       0.27139                      -0.50024                       0.82226
                       0.24923                      -0.50239                       0.82794
                       0.22979                      -0.50412                       0.83250
                       0.20917                      -0.50563                       0.83701
                       0.18787                      -0.50685                       0.84131
                       0.16765                      -0.50774                       0.84504
                       0.14754                      -0.50836                       0.84841
                       0.12926                      -0.50872                       0.85117
                       0.11537                      -0.50892                       0.85305
                       0.10169                      -0.50898                       0.85475
                       0.09022                      -0.50894                       0.85606
                       0.08170                      -0.50885                       0.85697
                       0.07715                      -0.50880                       0.85742
                       0.07716                      -0.50882                       0.85741
        </DataArray>
        <DataArray type="Float32" Name="OrientationZ" NumberOfComponents="3" format="ascii">
                      -0.08696                      -0.86502                      -0.49415
                      -0.08693                      -0.86493                      -0.49430
                      -0.08681                      -0.86471                      -0.49472
                      -0.08661                      -0.86442                      -0.49525
                      -0.08627                      -0.86401                      -0.49602
                      -0.08573                      -0.86349                      -0.49703
                      -0.08505                      -0.86297                      -0.49805
                      -0.08424                      -0.86248                      -0.49903
                      -0.08328                      -0.86205                      -0.49994
                      -0.08219                      -0.86167                      -0.50076
                      -0.08095                      -0.86137                      -0.50149
                      -0.07960                      -0.86112                      -0.50213
                      -0.07814                      -0.86093                      -0.50269
                      -0.07663                      -0.86078                      -0.50317
                      -0.07514                      -0.86068                      -0.50357
                      -0.07397                      -0.86062                      -0.50385
                      -0.07313                      -0.86059                      -0.50403
                      -0.07242                      -0.86057                      -0.50416
                      -0.07213                      -0.86057                      -0.50420
        </DataArray>
        <DataArray type="Float32" Name="Force" NumberOfComponents="3" format="ascii">
                      67.41188                      -5.15896                      -2.83234
                      63.79179                      -5.52180                      -1.55456
                      72.85347                      -6.79321                      -0.89966
                      56.60072                      -4.90908                      -1.31629
                     320.69724                      44.81076                    -134.30612
                     285.84926                      31.88325                    -105.23503
                     267.74128                      26.35378                     -92.00135
                     229.54446                      19.18062                     -72.47698
                     202.85775                      12.92894                     -56.58346
                     186.79110                       9.89179                     -48.13291
                     173.12441                       5.89995                     -38.43628
                     158.40347                       3.92137                     -32.12831
                     140.85631                       2.12754                     -25.76113
                     127.26634                       1.19929                     -21.61061
                     114.09572                       0.44456                     -17.91755
                     103.51587                      -0.07768                     -15.16414
                      92.52009                      -0.38935                     -12.83405
                      62.39245                      -0.36336                      -8.38810
                      62.09687                      -0.34578                      -8.33932
        </DataArray>
        <DataArray type="Float32" Name="Moment" NumberOfComponents="3" format="ascii">
                       0.00000                       0.00000                       0.00000
                       0.00000                       0.00000                       0.00000
                       0.00000                       0.00000                       0.00000
                       0.00000                       0.00000                       0.00000
                      25.79587                     259.13112                     148.05376
                      26.12963                     264.40267                     151.08233
                      23.66411                     241.60727                     138.07540
                      21.40287                     220.84893                     126.23221
                      18.52671                     193.53924                     110.64267
                      15.83680                     167.78723                      95.94038
                      12.44212                     133.93382                      76.60049
                      10.44426                     114.42631                      65.45983
                       8.56260                      95.61945                      54.71541
                       6.96427                      79.34721                      45.41644
                       5.57519                      64.81764                      37.11001
                       4.57311                      54.03111                      30.94089
                       3.64407                      43.56018                      24.94846
                       1.65527                      19.98335                      11.44661
                       1.64064                      19.88714                      11.39208
        </DataArray>
      </PointData>
      <Lines>
        <DataArray type="Int32" Name="connectivity" format="ascii">
      0      1
      1      2
      2      3
      3      4
      4      5
      5      6
      6      7
      7      8
      8      9
      9     10
     10     11
     11     12
     12     13
     13     14
     14     15
     15     16
     16     17
     17     18
        </DataArray>
        <DataArray type="Int32" Name="offsets" format="ascii">
      2
      4
      6
      8
     10
     12
     14
     16
     18
     20
     22
     24
     26
     28
     30
     32
     34
     36
        </DataArray>
      </Lines>
    </Piece>
  </PolyData>
</VTKFile>
