<?xml version="1.0"?>
<VTKFile type="PolyData" version="0.1" byte_order="LittleEndian">
  <PolyData>
    <Piece NumberOfPoints="     22" NumberOfVerts="  0" NumberOfLines="     21"
           NumberOfStrips="  0" NumberOfPolys="      0">
      <Points>
        <DataArray type="Float32" NumberOfComponents="3" format="ascii">
                       0.00001                      -0.00000                       2.19000
                       0.00007                      -0.00000                       6.57000
                       0.00019                      -0.00000                      10.95000
                       0.00038                      -0.00001                      15.33000
                       0.00063                      -0.00001                      19.71000
                       0.00092                      -0.00002                      24.09000
                       0.00126                      -0.00003                      28.47000
                       0.00163                      -0.00004                      32.85000
                       0.00201                      -0.00005                      37.23000
                       0.00239                      -0.00007                      41.61000
                       0.00277                      -0.00008                      45.99000
                       0.00313                      -0.00010                      50.37000
                       0.00347                      -0.00012                      54.75000
                       0.00378                      -0.00015                      59.13000
                       0.00406                      -0.00018                      63.51000
                       0.00430                      -0.00021                      67.89000
                       0.00450                      -0.00024                      72.27000
                       0.00465                      -0.00027                      76.65000
                       0.00476                      -0.00031                      81.03000
                       0.00482                      -0.00035                      85.41000
                       0.00483                      -0.00037                      87.60000
                       0.00000                       0.00000                       0.00000
        </DataArray>
      </Points>
      <PointData>
        <DataArray type="Float32" Name="TranslationalVelocity" NumberOfComponents="3" format="ascii">
                      -0.00000                       0.00000                       0.00000
                      -0.00004                       0.00000                       0.00000
                      -0.00011                       0.00001                       0.00000
                      -0.00023                       0.00002                       0.00000
                      -0.00041                       0.00003                       0.00000
                      -0.00063                       0.00005                       0.00000
                      -0.00091                       0.00007                       0.00000
                      -0.00125                       0.00009                       0.00000
                      -0.00165                       0.00011                       0.00000
                      -0.00211                       0.00014                       0.00000
                      -0.00264                       0.00017                       0.00000
                      -0.00325                       0.00020                       0.00000
                      -0.00394                       0.00023                       0.00000
                      -0.00472                       0.00027                       0.00000
                      -0.00559                       0.00031                       0.00000
                      -0.00656                       0.00035                       0.00000
                      -0.00761                       0.00039                       0.00000
                      -0.00872                       0.00044                       0.00000
                      -0.00989                       0.00048                       0.00000
                      -0.01105                       0.00053                       0.00000
                      -0.01161                       0.00056                       0.00000
                       0.00000                      -0.00000                       0.00000
        </DataArray>
        <DataArray type="Float32" Name="RotationalVelocity" NumberOfComponents="3" format="ascii">
                      -0.00000                      -0.00000                       0.00000
                      -0.00000                      -0.00001                       0.00000
                      -0.00000                      -0.00002                       0.00000
                      -0.00000                      -0.00003                       0.00000
                      -0.00000                      -0.00005                       0.00000
                      -0.00000                      -0.00006                       0.00000
                      -0.00000                      -0.00007                       0.00000
                      -0.00001                      -0.00008                       0.00000
                      -0.00001                      -0.00010                       0.00000
                      -0.00001                      -0.00011                       0.00000
                      -0.00001                      -0.00013                       0.00000
                      -0.00001                      -0.00015                       0.00000
                      -0.00001                      -0.00017                       0.00000
                      -0.00001                      -0.00019                       0.00000
                      -0.00001                      -0.00021                       0.00000
                      -0.00001                      -0.00023                       0.00000
                      -0.00001                      -0.00025                       0.00000
                      -0.00001                      -0.00026                       0.00000
                      -0.00001                      -0.00027                       0.00000
                      -0.00001                      -0.00026                       0.00000
                      -0.00001                      -0.00025                       0.00000
                       0.00000                      -0.00000                       0.00000
        </DataArray>
        <DataArray type="Float32" Name="TranslationalAcceleration" NumberOfComponents="3" format="ascii">
                      -0.00003                      -0.00000                       0.00000
                      -0.00022                      -0.00001                       0.00000
                      -0.00061                      -0.00002                       0.00000
                      -0.00114                      -0.00004                       0.00000
                      -0.00178                      -0.00007                       0.00000
                      -0.00246                      -0.00009                       0.00000
                      -0.00313                      -0.00012                       0.00000
                      -0.00369                      -0.00015                       0.00000
                      -0.00407                      -0.00018                       0.00000
                      -0.00417                      -0.00022                       0.00000
                      -0.00391                      -0.00025                       0.00000
                      -0.00320                      -0.00027                      -0.00000
                      -0.00197                      -0.00030                      -0.00000
                      -0.00015                      -0.00031                      -0.00000
                       0.00230                      -0.00033                      -0.00000
                       0.00540                      -0.00033                      -0.00000
                       0.00912                      -0.00033                      -0.00000
                       0.01341                      -0.00032                      -0.00000
                       0.01818                      -0.00031                      -0.00000
                       0.02326                      -0.00029                      -0.00000
                       0.02585                      -0.00027                      -0.00000
                       0.00000                      -0.00000                       0.00000
        </DataArray>
        <DataArray type="Float32" Name="RotationalAcceleration" NumberOfComponents="3" format="ascii">
                       0.00000                      -0.00002                       0.00000
                       0.00000                      -0.00007                       0.00000
                       0.00000                      -0.00011                       0.00000
                       0.00000                      -0.00014                       0.00000
                       0.00001                      -0.00015                       0.00000
                       0.00001                      -0.00016                       0.00000
                       0.00001                      -0.00014                       0.00000
                       0.00001                      -0.00011                       0.00000
                       0.00001                      -0.00006                       0.00000
                       0.00001                       0.00001                       0.00000
                       0.00001                       0.00011                       0.00000
                       0.00001                       0.00022                       0.00000
                       0.00000                       0.00035                       0.00000
                       0.00000                       0.00049                       0.00000
                       0.00000                       0.00063                       0.00000
                       0.00000                       0.00078                       0.00000
                      -0.00000                       0.00092                       0.00000
                      -0.00000                       0.00104                       0.00000
                      -0.00000                       0.00113                       0.00000
                      -0.00001                       0.00118                       0.00000
                      -0.00001                       0.00118                       0.00000
                       0.00000                      -0.00000                       0.00000
        </DataArray>
        <DataArray type="Float32" Name="OrientationX" NumberOfComponents="3" format="ascii">
                       1.00000                       0.00000                      -0.00001
                       1.00000                       0.00000                      -0.00002
                       1.00000                       0.00000                      -0.00004
                       1.00000                       0.00000                      -0.00005
                       1.00000                       0.00000                      -0.00006
                       1.00000                       0.00000                      -0.00007
                       1.00000                       0.00000                      -0.00008
                       1.00000                       0.00000                      -0.00009
                       1.00000                       0.00000                      -0.00009
                       1.00000                       0.00000                      -0.00009
                       1.00000                       0.00000                      -0.00008
                       1.00000                       0.00000                      -0.00008
                       1.00000                       0.00000                      -0.00007
                       1.00000                       0.00000                      -0.00007
                       1.00000                       0.00000                      -0.00006
                       1.00000                       0.00000                      -0.00005
                       1.00000                       0.00000                      -0.00004
                       1.00000                       0.00000                      -0.00003
                       1.00000                       0.00000                      -0.00002
                       1.00000                       0.00000                      -0.00001
                       1.00000                      -0.00000                       0.00000
                       1.00000                      -0.00000                       0.00000
        </DataArray>
        <DataArray type="Float32" Name="OrientationY" NumberOfComponents="3" format="ascii">
                       0.00000                       1.00000                       0.00000
                       0.00000                       1.00000                       0.00000
                       0.00000                       1.00000                       0.00000
                       0.00000                       1.00000                       0.00000
                       0.00000                       1.00000                       0.00000
                       0.00000                       1.00000                       0.00000
                       0.00000                       1.00000                       0.00000
                       0.00000                       1.00000                       0.00000
                       0.00000                       1.00000                       0.00000
                       0.00000                       1.00000                       0.00000
                       0.00000                       1.00000                       0.00000
                       0.00000                       1.00000                       0.00000
                       0.00000                       1.00000                       0.00001
                       0.00000                       1.00000                       0.00001
                       0.00000                       1.00000                       0.00001
                       0.00000                       1.00000                       0.00001
                       0.00000                       1.00000                       0.00001
                       0.00000                       1.00000                       0.00001
                       0.00000                       1.00000                       0.00001
                       0.00000                       1.00000                       0.00001
                      -0.00000                       1.00000                       0.00001
                      -0.00000                       1.00000                      -0.00000
        </DataArray>
        <DataArray type="Float32" Name="OrientationZ" NumberOfComponents="3" format="ascii">
                       0.00001                      -0.00000                       1.00000
                       0.00002                      -0.00000                       1.00000
                       0.00004                      -0.00000                       1.00000
                       0.00005                      -0.00000                       1.00000
                       0.00006                      -0.00000                       1.00000
                       0.00007                      -0.00000                       1.00000
                       0.00008                      -0.00000                       1.00000
                       0.00009                      -0.00000                       1.00000
                       0.00009                      -0.00000                       1.00000
                       0.00009                      -0.00000                       1.00000
                       0.00008                      -0.00000                       1.00000
                       0.00008                      -0.00000                       1.00000
                       0.00007                      -0.00001                       1.00000
                       0.00007                      -0.00001                       1.00000
                       0.00006                      -0.00001                       1.00000
                       0.00005                      -0.00001                       1.00000
                       0.00004                      -0.00001                       1.00000
                       0.00003                      -0.00001                       1.00000
                       0.00002                      -0.00001                       1.00000
                       0.00001                      -0.00001                       1.00000
                      -0.00000                      -0.00001                       1.00000
                       0.00000                      -0.00000                       1.00000
        </DataArray>
      </PointData>
      <Lines>
        <DataArray type="Int32" Name="connectivity" format="ascii">
      0      1
      1      2
      2      3
      3      4
      4      5
      5      6
      6      7
      7      8
      8      9
      9     10
     10     11
     11     12
     12     13
     13     14
     14     15
     15     16
     16     17
     17     18
     18     19
     19     20
     21      0
        </DataArray>
        <DataArray type="Int32" Name="offsets" format="ascii">
      2
      4
      6
      8
     10
     12
     14
     16
     18
     20
     22
     24
     26
     28
     30
     32
     34
     36
     38
     40
     42
        </DataArray>
      </Lines>
    </Piece>
  </PolyData>
</VTKFile>
