<?xml version="1.0"?>
<VTKFile type="PolyData" version="0.1" byte_order="LittleEndian">
  <PolyData>
    <Piece NumberOfPoints="     19" NumberOfVerts="  0" NumberOfLines="     18"
           NumberOfStrips="  0" NumberOfPolys="      0">
      <Points>
        <DataArray type="Float32" NumberOfComponents="3" format="ascii">
                      -5.12235                      -1.27823                      89.22626
                      -5.24502                      -2.44055                      88.51783
                      -5.51940                      -4.71426                      87.02221
                      -5.80724                      -6.96326                      85.48842
                      -6.17449                      -9.75883                      83.54702
                      -6.55045                     -13.18817                      81.32963
                      -6.89077                     -16.68438                      79.21593
                      -7.23061                     -20.17974                      77.10065
                      -7.56707                     -23.67549                      74.98527
                      -7.90081                     -27.17083                      72.86860
                      -8.23317                     -30.66406                      70.74811
                      -8.56313                     -34.15627                      68.62548
                      -8.89126                     -37.64773                      66.50123
                      -9.21828                     -41.13863                      64.37583
                      -9.54260                     -44.62911                      62.24929
                      -9.81086                     -47.53762                      60.47640
                     -10.02394                     -49.86837                      59.06434
                     -10.23301                     -52.22807                      57.69837
                     -10.34093                     -53.38566                      56.98006
        </DataArray>
      </Points>
      <PointData>
        <DataArray type="Float32" Name="TranslationalVelocity" NumberOfComponents="3" format="ascii">
                       0.02497                       0.00980                      -0.01663
                       0.02352                       0.01944                      -0.03220
                       0.02047                       0.03985                      -0.06268
                       0.01709                       0.06085                      -0.09283
                       0.01222                       0.08751                      -0.13027
                       0.00500                       0.11797                      -0.17610
                      -0.00418                       0.14700                      -0.22256
                      -0.01579                       0.17599                      -0.26858
                      -0.03034                       0.20488                      -0.31400
                      -0.04827                       0.23361                      -0.35864
                      -0.06993                       0.26217                      -0.40235
                      -0.09552                       0.29050                      -0.44506
                      -0.12504                       0.31858                      -0.48673
                      -0.15827                       0.34641                      -0.52742
                      -0.19469                       0.37403                      -0.56726
                      -0.22693                       0.39692                      -0.59997
                      -0.25341                       0.41512                      -0.62604
                      -0.28013                       0.43276                      -0.65245
                      -0.29335                       0.44203                      -0.66543
        </DataArray>
        <DataArray type="Float32" Name="RotationalVelocity" NumberOfComponents="3" format="ascii">
                       0.01339                       0.00009                      -0.00117
                       0.01340                       0.00011                      -0.00120
                       0.01341                       0.00015                      -0.00128
                       0.01342                       0.00022                      -0.00141
                       0.01341                       0.00034                      -0.00163
                       0.01337                       0.00053                      -0.00199
                       0.01329                       0.00078                      -0.00245
                       0.01317                       0.00108                      -0.00301
                       0.01302                       0.00144                      -0.00367
                       0.01282                       0.00185                      -0.00441
                       0.01261                       0.00231                      -0.00522
                       0.01238                       0.00279                      -0.00606
                       0.01215                       0.00327                      -0.00689
                       0.01194                       0.00371                      -0.00766
                       0.01177                       0.00408                      -0.00827
                       0.01168                       0.00429                      -0.00862
                       0.01165                       0.00436                      -0.00873
                       0.01165                       0.00432                      -0.00865
                       0.01168                       0.00425                      -0.00853
        </DataArray>
        <DataArray type="Float32" Name="TranslationalAcceleration" NumberOfComponents="3" format="ascii">
                       0.00513                       0.00119                       0.03611
                      -0.00359                       0.00290                       0.00797
                      -0.01188                       0.00827                       0.01875
                      -0.01915                       0.01287                       0.02399
                      -0.02321                       0.01754                       0.02469
                      -0.01525                       0.02175                       0.01833
                       0.00872                       0.02553                       0.00672
                       0.04730                       0.03018                      -0.00845
                       0.09721                       0.03677                      -0.02691
                       0.15262                       0.04628                      -0.04894
                       0.20513                       0.05952                      -0.07496
                       0.24387                       0.07716                      -0.10520
                       0.25550                       0.09963                      -0.13930
                       0.22428                       0.12711                      -0.17593
                       0.13215                       0.15946                      -0.21252
                      -0.00742                       0.18980                      -0.23987
                      -0.16732                       0.21573                      -0.25752
                      -0.37723                       0.24219                      -0.26936
                      -0.50442                       0.25623                      -0.27168
        </DataArray>
        <DataArray type="Float32" Name="OrientationX" NumberOfComponents="3" format="ascii">
                       0.94945                       0.08406                      -0.30244
                       0.94946                       0.08412                      -0.30240
                       0.94948                       0.08433                      -0.30228
                       0.94951                       0.08463                      -0.30211
                       0.94955                       0.08510                      -0.30185
                       0.95872                       0.06918                      -0.27581
                       0.96474                       0.05790                      -0.25674
                       0.96960                       0.04816                      -0.23993
                       0.97429                       0.03784                      -0.22208
                       0.97867                       0.02720                      -0.20363
                       0.98238                       0.01718                      -0.18608
                       0.98566                       0.00726                      -0.16860
                       0.98827                      -0.00167                      -0.15268
                       0.99005                      -0.00824                      -0.14049
                       0.99160                      -0.01477                      -0.12849
                       0.99275                      -0.02031                      -0.11849
                       0.99351                      -0.02447                      -0.11107
                       0.99390                      -0.02662                      -0.10706
                       0.99390                      -0.02651                      -0.10702
        </DataArray>
        <DataArray type="Float32" Name="OrientationY" NumberOfComponents="3" format="ascii">
                       0.30103                      -0.51695                       0.80134
                       0.30101                      -0.51708                       0.80126
                       0.30098                      -0.51742                       0.80105
                       0.30095                      -0.51785                       0.80079
                       0.30091                      -0.51846                       0.80041
                       0.27042                      -0.52169                       0.80914
                       0.24828                      -0.52392                       0.81478
                       0.22885                      -0.52571                       0.81930
                       0.20825                      -0.52728                       0.82378
                       0.18698                      -0.52855                       0.82806
                       0.16681                      -0.52948                       0.83176
                       0.14676                      -0.53012                       0.83513
                       0.12855                      -0.53049                       0.83788
                       0.11474                      -0.53069                       0.83977
                       0.10114                      -0.53074                       0.84148
                       0.08974                      -0.53067                       0.84281
                       0.08125                      -0.53057                       0.84374
                       0.07673                      -0.53051                       0.84420
                       0.07675                      -0.53052                       0.84419
        </DataArray>
        <DataArray type="Float32" Name="OrientationZ" NumberOfComponents="3" format="ascii">
                      -0.08899                      -0.85188                      -0.51612
                      -0.08896                      -0.85179                      -0.51627
                      -0.08886                      -0.85157                      -0.51666
                      -0.08868                      -0.85128                      -0.51717
                      -0.08838                      -0.85086                      -0.51791
                      -0.08791                      -0.85033                      -0.51886
                      -0.08734                      -0.84979                      -0.51983
                      -0.08667                      -0.84930                      -0.52075
                      -0.08593                      -0.84885                      -0.52160
                      -0.08511                      -0.84847                      -0.52236
                      -0.08424                      -0.84815                      -0.52302
                      -0.08332                      -0.84789                      -0.52358
                      -0.08239                      -0.84769                      -0.52406
                      -0.08148                      -0.84753                      -0.52446
                      -0.08062                      -0.84741                      -0.52479
                      -0.07999                      -0.84733                      -0.52500
                      -0.07958                      -0.84729                      -0.52514
                      -0.07926                      -0.84726                      -0.52523
                      -0.07915                      -0.84726                      -0.52525
        </DataArray>
        <DataArray type="Float32" Name="Force" NumberOfComponents="3" format="ascii">
                      66.99389                      -5.27494                      -2.84414
                      63.07407                      -5.79201                      -1.31028
                      72.48794                      -7.26531                      -0.48138
                      56.42515                      -5.37619                      -0.81164
                     326.18032                      48.18362                    -135.27064
                     290.73501                      34.60993                    -106.49094
                     274.26438                      29.00697                     -94.08938
                     235.78584                      21.05989                     -74.14323
                     208.73436                      14.25798                     -58.06373
                     194.19129                      11.06215                     -50.04782
                     180.22831                       6.57503                     -40.03090
                     167.41738                       4.40327                     -34.05873
                     149.27970                       2.23790                     -27.30143
                     137.19899                       1.16466                     -23.36718
                     125.15411                       0.26147                     -19.78040
                     115.12026                      -0.38105                     -17.02515
                     103.90732                      -0.76477                     -14.58690
                      70.63209                      -0.66924                      -9.62536
                      70.51543                      -0.66360                      -9.60159
        </DataArray>
        <DataArray type="Float32" Name="Moment" NumberOfComponents="3" format="ascii">
                       0.00000                       0.00000                       0.00000
                       0.00000                       0.00000                       0.00000
                       0.00000                       0.00000                       0.00000
                       0.00000                       0.00000                       0.00000
                      26.19392                     252.91217                     153.24955
                      26.55901                     258.04845                     156.37644
                      24.12099                     236.12390                     143.10614
                      21.95088                     216.72646                     131.36657
                      19.16881                     191.06384                     115.82744
                      16.57727                     166.94688                     101.22223
                      13.19112                     134.31656                      81.45080
                      11.28515                     116.24060                      70.50082
                       9.45798                      98.57232                      59.79467
                       7.88357                      83.12272                      50.43089
                       6.47595                      69.02999                      41.88700
                       5.42532                      58.30006                      35.37999
                       4.39121                      47.44196                      28.79271
                       2.02135                      21.92706                      13.30834
                       2.01443                      21.88300                      13.28185
        </DataArray>
      </PointData>
      <Lines>
        <DataArray type="Int32" Name="connectivity" format="ascii">
      0      1
      1      2
      2      3
      3      4
      4      5
      5      6
      6      7
      7      8
      8      9
      9     10
     10     11
     11     12
     12     13
     13     14
     14     15
     15     16
     16     17
     17     18
        </DataArray>
        <DataArray type="Int32" Name="offsets" format="ascii">
      2
      4
      6
      8
     10
     12
     14
     16
     18
     20
     22
     24
     26
     28
     30
     32
     34
     36
        </DataArray>
      </Lines>
    </Piece>
  </PolyData>
</VTKFile>
