<?xml version="1.0"?>
<VTKFile type="PolyData" version="0.1" byte_order="LittleEndian">
  <PolyData>
    <Piece NumberOfPoints="     19" NumberOfVerts="  0" NumberOfLines="     18"
           NumberOfStrips="  0" NumberOfPolys="      0">
      <Points>
        <DataArray type="Float32" NumberOfComponents="3" format="ascii">
                      -5.13475                       1.15530                      89.05659
                      -5.27055                       2.21065                      88.19886
                      -5.55776                       4.38027                      86.55803
                      -5.85218                       6.57736                      84.95171
                      -6.22420                       9.33951                      82.96315
                      -6.62688                      12.56278                      80.45820
                      -7.01323                      15.70162                      77.84780
                      -7.40056                      18.83647                      75.23281
                      -7.78629                      21.96644                      72.61181
                      -8.17080                      25.09299                      69.98663
                      -8.55484                      28.21875                      67.36055
                      -8.93748                      31.34310                      64.73269
                      -9.31911                      34.46634                      62.10345
                      -9.70022                      37.58874                      59.47321
                     -10.07893                      40.71062                      56.84206
                     -10.39252                      43.31186                      54.64876
                     -10.64283                      45.38750                      52.88773
                     -10.89665                      47.42752                      51.08436
                     -11.02096                      48.47411                      50.21441
        </DataArray>
      </Points>
      <PointData>
        <DataArray type="Float32" Name="TranslationalVelocity" NumberOfComponents="3" format="ascii">
                       0.00149                       0.11467                       0.13732
                       0.01272                       0.21869                       0.26354
                       0.03576                       0.41792                       0.52295
                       0.05906                       0.61303                       0.78554
                       0.08830                       0.85452                       1.11548
                       0.12235                       1.15784                       1.50026
                       0.15542                       1.47335                       1.87469
                       0.18832                       1.78918                       2.24838
                       0.22106                       2.10549                       2.62126
                       0.25363                       2.42209                       2.99352
                       0.28610                       2.73862                       3.36552
                       0.31845                       3.05522                       3.73722
                       0.35073                       3.37187                       4.10868
                       0.38294                       3.68856                       4.47997
                       0.41513                       4.00528                       4.85113
                       0.44194                       4.26924                       5.16036
                       0.46334                       4.48114                       5.40708
                       0.48439                       4.69809                       5.64953
                       0.49520                       4.80275                       5.77390
        </DataArray>
        <DataArray type="Float32" Name="RotationalVelocity" NumberOfComponents="3" format="ascii">
                       0.11963                      -0.00019                      -0.01049
                       0.11962                      -0.00019                      -0.01048
                       0.11958                      -0.00019                      -0.01048
                       0.11953                      -0.00019                      -0.01046
                       0.11947                      -0.00018                      -0.01045
                       0.11938                      -0.00017                      -0.01042
                       0.11929                      -0.00016                      -0.01039
                       0.11921                      -0.00014                      -0.01036
                       0.11914                      -0.00013                      -0.01033
                       0.11908                      -0.00012                      -0.01031
                       0.11903                      -0.00011                      -0.01029
                       0.11899                      -0.00010                      -0.01027
                       0.11896                      -0.00009                      -0.01025
                       0.11893                      -0.00009                      -0.01024
                       0.11891                      -0.00009                      -0.01023
                       0.11890                      -0.00009                      -0.01023
                       0.11889                      -0.00010                      -0.01023
                       0.11888                      -0.00010                      -0.01023
                       0.11888                      -0.00011                      -0.01023
        </DataArray>
        <DataArray type="Float32" Name="TranslationalAcceleration" NumberOfComponents="3" format="ascii">
                       0.00343                      -0.01197                       0.01858
                       0.00242                      -0.01527                       0.02224
                       0.00661                      -0.04469                       0.06296
                       0.01014                      -0.07261                       0.10005
                       0.01395                      -0.10571                       0.14321
                       0.01808                      -0.14151                       0.19333
                       0.02201                      -0.17442                       0.24320
                       0.02588                      -0.20696                       0.29304
                       0.02979                      -0.23958                       0.34356
                       0.03376                      -0.27244                       0.39493
                       0.03777                      -0.30553                       0.44702
                       0.04175                      -0.33862                       0.49952
                       0.04562                      -0.37150                       0.55205
                       0.04931                      -0.40399                       0.60428
                       0.05282                      -0.43606                       0.65609
                       0.05561                      -0.46260                       0.69905
                       0.05781                      -0.48374                       0.73357
                       0.06008                      -0.50442                       0.76894
                       0.06123                      -0.51545                       0.78656
        </DataArray>
        <DataArray type="Float32" Name="OrientationX" NumberOfComponents="3" format="ascii">
                       0.98165                       0.17922                       0.06510
                       0.98165                       0.17921                       0.06510
                       0.98166                       0.17919                       0.06512
                       0.98166                       0.17917                       0.06515
                       0.98166                       0.17912                       0.06519
                       0.98638                       0.15938                       0.04059
                       0.98917                       0.14494                       0.02293
                       0.99120                       0.13218                       0.00758
                       0.99291                       0.11856                      -0.00856
                       0.99422                       0.10442                      -0.02509
                       0.99503                       0.09091                      -0.04061
                       0.99543                       0.07739                      -0.05591
                       0.99545                       0.06501                      -0.06963
                       0.99526                       0.05543                      -0.07985
                       0.99489                       0.04599                      -0.08986
                       0.99443                       0.03812                      -0.09824
                       0.99400                       0.03228                      -0.10447
                       0.99376                       0.02906                      -0.10769
                       0.99378                       0.02896                      -0.10757
        </DataArray>
        <DataArray type="Float32" Name="OrientationY" NumberOfComponents="3" format="ascii">
                       0.16298                      -0.61148                      -0.77429
                       0.16300                      -0.61160                      -0.77419
                       0.16304                      -0.61192                      -0.77393
                       0.16310                      -0.61232                      -0.77361
                       0.16318                      -0.61288                      -0.77314
                       0.13188                      -0.61900                      -0.77424
                       0.10927                      -0.62321                      -0.77439
                       0.08949                      -0.62665                      -0.77414
                       0.06855                      -0.62991                      -0.77364
                       0.04696                      -0.63285                      -0.77285
                       0.02654                      -0.63529                      -0.77181
                       0.00628                      -0.63737                      -0.77054
                      -0.01207                      -0.63897                      -0.76914
                      -0.02596                      -0.64004                      -0.76790
                      -0.03961                      -0.64092                      -0.76659
                      -0.05102                      -0.64152                      -0.76541
                      -0.05950                      -0.64190                      -0.76448
                      -0.06401                      -0.64209                      -0.76395
                      -0.06398                      -0.64211                      -0.76394
        </DataArray>
        <DataArray type="Float32" Name="OrientationZ" NumberOfComponents="3" format="ascii">
                      -0.09896                       0.77070                      -0.62947
                      -0.09893                       0.77060                      -0.62959
                      -0.09883                       0.77035                      -0.62991
                      -0.09872                       0.77004                      -0.63031
                      -0.09854                       0.76961                      -0.63087
                      -0.09827                       0.76905                      -0.63159
                      -0.09795                       0.76851                      -0.63230
                      -0.09757                       0.76801                      -0.63296
                      -0.09712                       0.76757                      -0.63357
                      -0.09659                       0.76720                      -0.63409
                      -0.09597                       0.76690                      -0.63455
                      -0.09526                       0.76666                      -0.63494
                      -0.09449                       0.76648                      -0.63528
                      -0.09367                       0.76634                      -0.63557
                      -0.09285                       0.76623                      -0.63582
                      -0.09220                       0.76616                      -0.63600
                      -0.09173                       0.76611                      -0.63613
                      -0.09134                       0.76608                      -0.63622
                      -0.09119                       0.76607                      -0.63626
        </DataArray>
        <DataArray type="Float32" Name="Force" NumberOfComponents="3" format="ascii">
                      65.82708                       4.33509                      -5.04114
                      60.03366                       4.50984                      -3.91206
                      70.94763                       3.68415                      -6.62449
                      55.53030                       0.88218                      -7.62169
                     337.61514                      83.80790                      49.82154
                     317.77550                      68.47316                      34.31166
                     314.65089                      63.16268                      28.48498
                     272.78526                      49.36251                      18.27735
                     239.10693                      37.20708                       8.79197
                     230.93687                      32.62963                       4.65611
                     209.76238                      23.92351                      -2.54593
                     201.88081                      20.33539                      -5.50606
                     171.25362                      13.77266                      -8.70842
                     162.39134                      11.43138                     -10.03289
                     153.45788                       9.38479                     -11.00926
                     145.29049                       7.64445                     -11.78710
                     134.43365                       6.26526                     -11.79282
                      93.73962                       4.08252                      -8.51445
                      94.86579                       4.14774                      -8.57350
        </DataArray>
        <DataArray type="Float32" Name="Moment" NumberOfComponents="3" format="ascii">
                       0.00000                       0.00000                       0.00000
                       0.00000                       0.00000                       0.00000
                       0.00000                       0.00000                       0.00000
                       0.00000                       0.00000                       0.00000
                      29.47639                    -230.82973                     188.54657
                      29.43578                    -231.27397                     188.91796
                      26.52978                    -209.24879                     170.93552
                      24.17008                    -191.49248                     156.43989
                      21.21687                    -168.96838                     138.04847
                      18.58664                    -148.90909                     121.66964
                      14.81076                    -119.47203                      97.62631
                      12.91227                    -104.96185                      85.77809
                      11.03192                     -90.43731                      73.91638
                       9.40471                     -77.79188                      63.58842
                       7.92116                     -66.11714                      54.05161
                       6.77999                     -57.00147                      46.60373
                       5.58663                     -47.21222                      38.60269
                       2.61339                     -22.18066                      18.13682
                       2.62422                     -22.31059                      18.24346
        </DataArray>
      </PointData>
      <Lines>
        <DataArray type="Int32" Name="connectivity" format="ascii">
      0      1
      1      2
      2      3
      3      4
      4      5
      5      6
      6      7
      7      8
      8      9
      9     10
     10     11
     11     12
     12     13
     13     14
     14     15
     15     16
     16     17
     17     18
        </DataArray>
        <DataArray type="Int32" Name="offsets" format="ascii">
      2
      4
      6
      8
     10
     12
     14
     16
     18
     20
     22
     24
     26
     28
     30
     32
     34
     36
        </DataArray>
      </Lines>
    </Piece>
  </PolyData>
</VTKFile>
