<?xml version="1.0"?>
<VTKFile type="PolyData" version="0.1" byte_order="LittleEndian">
  <PolyData>
    <Piece NumberOfPoints="     19" NumberOfVerts="  0" NumberOfLines="     18"
           NumberOfStrips="  0" NumberOfPolys="      0">
      <Points>
        <DataArray type="Float32" NumberOfComponents="3" format="ascii">
                      -4.91108                      -0.14555                      91.49326
                      -4.85238                      -0.28074                      92.85198
                      -4.75772                      -0.64537                      95.56116
                      -4.67339                      -1.05478                      98.26645
                      -4.57338                      -1.59354                     101.64572
                      -4.39723                      -2.09848                     105.71205
                      -4.19307                      -2.47485                     109.78960
                      -3.98755                      -2.84947                     113.86726
                      -3.77754                      -3.22055                     117.94503
                      -3.56315                      -3.59000                     122.02274
                      -3.34508                      -3.96142                     126.10006
                      -3.12198                      -4.33326                     130.17707
                      -2.89402                      -4.70546                     134.25377
                      -2.66157                      -5.07796                     138.33020
                      -2.42277                      -5.45081                     142.40625
                      -2.21876                      -5.76171                     145.80269
                      -2.05266                      -6.00266                     148.52038
                      -1.88447                      -6.18890                     151.24339
                      -1.80044                      -6.32351                     152.60073
        </DataArray>
      </Points>
      <PointData>
        <DataArray type="Float32" Name="TranslationalVelocity" NumberOfComponents="3" format="ascii">
                      -0.00444                      -0.37411                      -0.03627
                      -0.00744                      -0.71537                      -0.07010
                      -0.01547                      -1.39564                      -0.16138
                      -0.02441                      -2.07514                      -0.26395
                      -0.03604                      -2.92454                      -0.39909
                      -0.04657                      -3.94899                      -0.52599
                      -0.05384                      -4.97816                      -0.62078
                      -0.06051                      -6.00868                      -0.71526
                      -0.06642                      -7.04054                      -0.80898
                      -0.07151                      -8.07356                      -0.90240
                      -0.07575                      -9.10749                      -0.99644
                      -0.07905                     -10.14224                      -1.09069
                      -0.08135                     -11.17763                      -1.18514
                      -0.08262                     -12.21352                      -1.27976
                      -0.08289                     -13.24981                      -1.37455
                      -0.08237                     -14.11366                      -1.45367
                      -0.08136                     -14.80508                      -1.51504
                      -0.07880                     -15.49802                      -1.56261
                      -0.07832                     -15.84350                      -1.59690
        </DataArray>
        <DataArray type="Float32" Name="RotationalVelocity" NumberOfComponents="3" format="ascii">
                       0.25017                      -0.00002                      -0.02197
                       0.25022                      -0.00002                      -0.02197
                       0.25035                       0.00000                      -0.02198
                       0.25052                       0.00004                      -0.02198
                       0.25076                       0.00009                      -0.02199
                       0.25108                       0.00019                      -0.02200
                       0.25139                       0.00032                      -0.02201
                       0.25169                       0.00047                      -0.02202
                       0.25196                       0.00064                      -0.02203
                       0.25220                       0.00084                      -0.02203
                       0.25240                       0.00107                      -0.02202
                       0.25257                       0.00130                      -0.02201
                       0.25272                       0.00155                      -0.02198
                       0.25283                       0.00181                      -0.02195
                       0.25292                       0.00204                      -0.02191
                       0.25299                       0.00222                      -0.02188
                       0.25302                       0.00234                      -0.02185
                       0.25304                       0.00243                      -0.02182
                       0.25305                       0.00246                      -0.02181
        </DataArray>
        <DataArray type="Float32" Name="TranslationalAcceleration" NumberOfComponents="3" format="ascii">
                       0.00114                      -0.00225                      -0.09423
                      -0.00706                      -0.00369                      -0.11461
                      -0.02133                      -0.00522                      -0.32825
                      -0.03582                      -0.00325                      -0.52548
                      -0.05408                       0.00126                      -0.75657
                      -0.07597                      -0.00193                      -1.01929
                      -0.09769                      -0.01328                      -1.27515
                      -0.11915                      -0.02466                      -1.53086
                      -0.14029                      -0.03628                      -1.78970
                      -0.16106                      -0.04807                      -2.05265
                      -0.18143                      -0.05983                      -2.31906
                      -0.20139                      -0.07167                      -2.58731
                      -0.22096                      -0.08356                      -2.85546
                      -0.24018                      -0.09548                      -3.12192
                      -0.25914                      -0.10737                      -3.38613
                      -0.27479                      -0.11719                      -3.60524
                      -0.28726                      -0.12560                      -3.78093
                      -0.29971                      -0.13764                      -3.95851
                      -0.30596                      -0.14098                      -4.04877
        </DataArray>
        <DataArray type="Float32" Name="OrientationX" NumberOfComponents="3" format="ascii">
                       0.97025                      -0.23321                      -0.06509
                       0.97024                      -0.23320                      -0.06515
                       0.97024                      -0.23318                      -0.06534
                       0.97022                      -0.23316                      -0.06560
                       0.97020                      -0.23313                      -0.06604
                       0.97727                      -0.20210                      -0.06400
                       0.98173                      -0.17958                      -0.06283
                       0.98519                      -0.15983                      -0.06204
                       0.98841                      -0.13890                      -0.06128
                       0.99125                      -0.11730                      -0.06061
                       0.99348                      -0.09682                      -0.06019
                       0.99527                      -0.07648                      -0.05991
                       0.99652                      -0.05801                      -0.05991
                       0.99721                      -0.04398                      -0.06038
                       0.99769                      -0.03016                      -0.06083
                       0.99796                      -0.01861                      -0.06109
                       0.99807                      -0.01001                      -0.06121
                       0.99809                      -0.00539                      -0.06154
                       0.99807                      -0.00537                      -0.06183
        </DataArray>
        <DataArray type="Float32" Name="OrientationY" NumberOfComponents="3" format="ascii">
                       0.23817                       0.96764                       0.08337
                       0.23817                       0.96764                       0.08337
                       0.23818                       0.96764                       0.08339
                       0.23818                       0.96763                       0.08341
                       0.23819                       0.96763                       0.08343
                       0.20714                       0.97456                       0.08553
                       0.18464                       0.97895                       0.08703
                       0.16493                       0.98234                       0.08832
                       0.14405                       0.98550                       0.08966
                       0.12251                       0.98829                       0.09101
                       0.10212                       0.99048                       0.09228
                       0.08187                       0.99224                       0.09353
                       0.06352                       0.99348                       0.09467
                       0.04963                       0.99419                       0.09554
                       0.03595                       0.99469                       0.09641
                       0.02450                       0.99497                       0.09713
                       0.01597                       0.99509                       0.09766
                       0.01141                       0.99513                       0.09794
                       0.01142                       0.99513                       0.09793
        </DataArray>
        <DataArray type="Float32" Name="OrientationZ" NumberOfComponents="3" format="ascii">
                       0.04355                      -0.09639                       0.99439
                       0.04360                      -0.09641                       0.99439
                       0.04378                      -0.09647                       0.99437
                       0.04403                      -0.09655                       0.99435
                       0.04445                      -0.09667                       0.99432
                       0.04509                      -0.09685                       0.99428
                       0.04588                      -0.09704                       0.99422
                       0.04683                      -0.09724                       0.99416
                       0.04794                      -0.09744                       0.99409
                       0.04922                      -0.09764                       0.99400
                       0.05068                      -0.09783                       0.99391
                       0.05229                      -0.09800                       0.99381
                       0.05403                      -0.09815                       0.99370
                       0.05583                      -0.09827                       0.99359
                       0.05760                      -0.09837                       0.99348
                       0.05898                      -0.09843                       0.99340
                       0.05994                      -0.09845                       0.99334
                       0.06071                      -0.09845                       0.99329
                       0.06100                      -0.09845                       0.99327
        </DataArray>
        <DataArray type="Float32" Name="Force" NumberOfComponents="3" format="ascii">
                       0.00190                       0.21247                       0.02051
                      70.50305                       6.56886                      -2.45462
                      78.57764                      13.90321                      -2.11158
                      61.27858                      15.91286                      -1.17099
                     465.74549                    -163.76213                     -36.69622
                     445.09208                    -133.53643                     -33.13123
                     478.22605                    -131.76174                     -34.84425
                     427.15866                    -103.78857                     -30.18411
                     390.06601                     -78.51602                     -26.42499
                     406.39455                     -72.33085                     -27.14065
                     384.46367                     -51.28315                     -24.57953
                     397.45604                     -45.22156                     -25.30252
                     358.58276                     -36.15368                     -23.00663
                     374.38088                     -38.87650                     -24.81102
                     393.34453                     -43.97486                     -27.07652
                     406.60266                     -47.27033                     -28.72974
                     404.05667                     -48.81550                     -29.12061
                     304.78684                     -40.04907                     -22.51736
                      93.96842                       0.91290                      -5.68300
        </DataArray>
        <DataArray type="Float32" Name="Moment" NumberOfComponents="3" format="ascii">
                       0.00000                       0.00000                       0.00000
                       0.00000                       0.00000                       0.00000
                       0.00000                       0.00000                       0.00000
                       0.00000                       0.00000                       0.00000
                     -12.79537                      27.74689                    -286.22226
                     -14.12128                      30.18738                    -311.37948
                     -14.03227                      29.48057                    -304.06762
                     -14.31764                      29.47289                    -303.96300
                     -14.03873                      28.22897                    -291.10546
                     -13.69587                      26.82118                    -276.55659
                     -11.92858                      22.68924                    -233.92154
                     -11.59652                      21.37753                    -220.36670
                     -11.04644                      19.70973                    -203.14336
                     -10.42508                      18.00222                    -185.51498
                      -9.66313                      16.17366                    -166.64533
                      -8.90488                      14.55806                    -149.98086
                      -7.72157                      12.42183                    -127.96198
                      -3.76229                       5.97565                     -61.55322
                      -1.93947                       3.06558                     -31.57673
        </DataArray>
      </PointData>
      <Lines>
        <DataArray type="Int32" Name="connectivity" format="ascii">
      0      1
      1      2
      2      3
      3      4
      4      5
      5      6
      6      7
      7      8
      8      9
      9     10
     10     11
     11     12
     12     13
     13     14
     14     15
     15     16
     16     17
     17     18
        </DataArray>
        <DataArray type="Int32" Name="offsets" format="ascii">
      2
      4
      6
      8
     10
     12
     14
     16
     18
     20
     22
     24
     26
     28
     30
     32
     34
     36
        </DataArray>
      </Lines>
    </Piece>
  </PolyData>
</VTKFile>
