<?xml version="1.0"?>
<VTKFile type="PolyData" version="0.1" byte_order="LittleEndian">
  <PolyData>
    <Piece NumberOfPoints="     19" NumberOfVerts="  0" NumberOfLines="     18"
           NumberOfStrips="  0" NumberOfPolys="      0">
      <Points>
        <DataArray type="Float32" NumberOfComponents="3" format="ascii">
                      -4.92659                      -0.51657                      91.40829
                      -4.87489                      -0.98987                      92.68936
                      -4.79647                      -2.02538                      95.21980
                      -4.72959                      -3.10339                      97.73506
                      -4.65236                      -4.47694                     100.86981
                      -4.50116                      -5.99319                     104.67739
                      -4.32012                      -7.38955                     108.52779
                      -4.13900                      -8.78526                     112.37843
                      -3.95499                     -10.17856                     116.22987
                      -3.76867                     -11.57109                     120.08151
                      -3.58122                     -12.96605                     123.93223
                      -3.39167                     -14.36184                     127.78255
                      -3.20054                     -15.75822                     131.63260
                      -3.00853                     -17.15504                     135.48246
                      -2.81397                     -18.55230                     139.33207
                      -2.64990                     -19.71697                     142.53993
                      -2.51748                     -20.64145                     145.10881
                      -2.38344                     -21.51453                     147.69674
                      -2.31801                     -21.99020                     148.97621
        </DataArray>
      </Points>
      <PointData>
        <DataArray type="Float32" Name="TranslationalVelocity" NumberOfComponents="3" format="ascii">
                      -0.01765                      -0.06953                      -0.02686
                      -0.02006                      -0.13304                      -0.05023
                      -0.02524                      -0.25845                      -0.10138
                      -0.03055                      -0.38313                      -0.15468
                      -0.03723                      -0.53861                      -0.22266
                      -0.04452                      -0.72791                      -0.29777
                      -0.05107                      -0.91969                      -0.36704
                      -0.05728                      -1.11172                      -0.43637
                      -0.06306                      -1.30402                      -0.50568
                      -0.06833                      -1.49655                      -0.57505
                      -0.07303                      -1.68922                      -0.64463
                      -0.07710                      -1.88204                      -0.71433
                      -0.08050                      -2.07496                      -0.78414
                      -0.08323                      -2.26798                      -0.85404
                      -0.08531                      -2.46106                      -0.92402
                      -0.08661                      -2.62200                      -0.98238
                      -0.08739                      -2.75091                      -1.02874
                      -0.08779                      -2.88080                      -1.07253
                      -0.08813                      -2.94502                      -1.09639
        </DataArray>
        <DataArray type="Float32" Name="RotationalVelocity" NumberOfComponents="3" format="ascii">
                       0.04940                      -0.00028                      -0.00433
                       0.04940                      -0.00028                      -0.00433
                       0.04943                      -0.00027                      -0.00433
                       0.04946                      -0.00025                      -0.00432
                       0.04951                      -0.00022                      -0.00432
                       0.04957                      -0.00017                      -0.00430
                       0.04963                      -0.00011                      -0.00428
                       0.04969                      -0.00002                      -0.00426
                       0.04974                       0.00008                      -0.00422
                       0.04979                       0.00020                      -0.00418
                       0.04984                       0.00034                      -0.00414
                       0.04988                       0.00049                      -0.00408
                       0.04991                       0.00065                      -0.00403
                       0.04994                       0.00081                      -0.00397
                       0.04996                       0.00095                      -0.00392
                       0.04997                       0.00104                      -0.00388
                       0.04998                       0.00110                      -0.00386
                       0.04998                       0.00112                      -0.00385
                       0.04998                       0.00112                      -0.00385
        </DataArray>
        <DataArray type="Float32" Name="TranslationalAcceleration" NumberOfComponents="3" format="ascii">
                      -0.01822                      -0.00241                      -0.00215
                      -0.00515                      -0.00395                      -0.00541
                      -0.01234                      -0.01133                      -0.01611
                      -0.01664                      -0.01787                      -0.02659
                      -0.02011                      -0.02533                      -0.03940
                      -0.02385                      -0.03407                      -0.05374
                      -0.02921                      -0.04284                      -0.06724
                      -0.03727                      -0.05142                      -0.08055
                      -0.04781                      -0.06014                      -0.09392
                      -0.05959                      -0.06931                      -0.10755
                      -0.07048                      -0.07924                      -0.12164
                      -0.07757                      -0.09022                      -0.13637
                      -0.07733                      -0.10246                      -0.15190
                      -0.06571                      -0.11609                      -0.16846
                      -0.03832                      -0.13118                      -0.18625
                       0.00030                      -0.14481                      -0.20225
                       0.04303                      -0.15636                      -0.21587
                       0.09792                      -0.16864                      -0.23015
                       0.13033                      -0.17476                      -0.23779
        </DataArray>
        <DataArray type="Float32" Name="OrientationX" NumberOfComponents="3" format="ascii">
                       0.96507                      -0.23073                      -0.12415
                       0.96506                      -0.23071                      -0.12420
                       0.96506                      -0.23066                      -0.12434
                       0.96505                      -0.23059                      -0.12456
                       0.96503                      -0.23049                      -0.12490
                       0.97278                      -0.20119                      -0.11501
                       0.97774                      -0.17989                      -0.10802
                       0.98164                      -0.16119                      -0.10200
                       0.98533                      -0.14137                      -0.09562
                       0.98866                      -0.12092                      -0.08905
                       0.99137                      -0.10152                      -0.08289
                       0.99365                      -0.08224                      -0.07679
                       0.99535                      -0.06474                      -0.07133
                       0.99640                      -0.05141                      -0.06739
                       0.99725                      -0.03831                      -0.06346
                       0.99782                      -0.02737                      -0.06009
                       0.99816                      -0.01925                      -0.05753
                       0.99831                      -0.01490                      -0.05625
                       0.99830                      -0.01489                      -0.05636
        </DataArray>
        <DataArray type="Float32" Name="OrientationY" NumberOfComponents="3" format="ascii">
                       0.25917                       0.91022                       0.32300
                       0.25917                       0.91020                       0.32306
                       0.25918                       0.91015                       0.32320
                       0.25920                       0.91008                       0.32338
                       0.25923                       0.90998                       0.32363
                       0.22836                       0.91674                       0.32778
                       0.20599                       0.92099                       0.33067
                       0.18639                       0.92429                       0.33308
                       0.16561                       0.92739                       0.33545
                       0.14418                       0.93015                       0.33769
                       0.12388                       0.93235                       0.33966
                       0.10371                       0.93416                       0.34146
                       0.08542                       0.93546                       0.34296
                       0.07158                       0.93622                       0.34404
                       0.05795                       0.93680                       0.34503
                       0.04653                       0.93715                       0.34580
                       0.03804                       0.93734                       0.34633
                       0.03352                       0.93741                       0.34661
                       0.03355                       0.93741                       0.34662
        </DataArray>
        <DataArray type="Float32" Name="OrientationZ" NumberOfComponents="3" format="ascii">
                       0.03848                      -0.34389                       0.93822
                       0.03851                      -0.34396                       0.93820
                       0.03862                      -0.34413                       0.93813
                       0.03879                      -0.34436                       0.93804
                       0.03906                      -0.34469                       0.93790
                       0.03949                      -0.34512                       0.93773
                       0.04000                      -0.34556                       0.93754
                       0.04059                      -0.34598                       0.93736
                       0.04126                      -0.34636                       0.93719
                       0.04199                      -0.34670                       0.93703
                       0.04280                      -0.34700                       0.93689
                       0.04365                      -0.34725                       0.93676
                       0.04453                      -0.34746                       0.93664
                       0.04540                      -0.34763                       0.93653
                       0.04623                      -0.34776                       0.93644
                       0.04685                      -0.34784                       0.93638
                       0.04726                      -0.34789                       0.93635
                       0.04756                      -0.34791                       0.93632
                       0.04767                      -0.34792                       0.93631
        </DataArray>
        <DataArray type="Float32" Name="Force" NumberOfComponents="3" format="ascii">
                      70.00961                       1.53778                      -2.30761
                      70.44928                       2.10208                      -2.12134
                      77.61070                       3.52826                      -1.90211
                      59.46696                       3.62347                      -1.13126
                     354.70366                    -121.18119                     -59.19868
                     331.39626                     -96.25517                     -49.24663
                     326.69169                     -87.10395                     -45.87835
                     288.55814                     -68.33480                     -37.55741
                     260.15829                     -51.47833                     -30.33687
                     249.90359                     -44.05027                     -27.36275
                     234.30507                     -32.23235                     -22.53363
                     223.45588                     -26.30939                     -20.07146
                     198.35575                     -18.50595                     -16.22729
                     186.27335                     -14.85952                     -14.49080
                     173.55310                     -11.54783                     -12.81353
                     162.39659                      -8.98770                     -11.43050
                     148.59989                      -6.98309                     -10.06953
                     102.40007                      -4.33499                      -6.79767
                     102.96808                      -4.33962                      -6.83999
        </DataArray>
        <DataArray type="Float32" Name="Moment" NumberOfComponents="3" format="ascii">
                       0.00000                       0.00000                       0.00000
                       0.00000                       0.00000                       0.00000
                       0.00000                       0.00000                       0.00000
                       0.00000                       0.00000                       0.00000
                     -12.47864                     109.78346                    -299.49837
                     -13.16212                     114.52037                    -312.40831
                     -12.50339                     107.36704                    -292.87990
                     -11.93808                     100.99185                    -275.47389
                     -10.94828                      91.09899                    -248.47355
                      -9.96649                      81.45608                    -222.15687
                      -8.32160                      66.72928                    -181.97839
                      -7.50016                      58.96388                    -160.78837
                      -6.61464                      50.97221                    -138.98444
                      -5.79817                      43.81718                    -119.46519
                      -4.99655                      37.08241                    -101.09536
                      -4.34324                      31.81061                     -86.71818
                      -3.61009                      26.21197                     -71.45314
                      -1.69977                      12.26202                     -33.42498
                      -1.71059                      12.31268                     -33.56275
        </DataArray>
      </PointData>
      <Lines>
        <DataArray type="Int32" Name="connectivity" format="ascii">
      0      1
      1      2
      2      3
      3      4
      4      5
      5      6
      6      7
      7      8
      8      9
      9     10
     10     11
     11     12
     12     13
     13     14
     14     15
     15     16
     16     17
     17     18
        </DataArray>
        <DataArray type="Int32" Name="offsets" format="ascii">
      2
      4
      6
      8
     10
     12
     14
     16
     18
     20
     22
     24
     26
     28
     30
     32
     34
     36
        </DataArray>
      </Lines>
    </Piece>
  </PolyData>
</VTKFile>
