<?xml version="1.0"?>
<VTKFile type="PolyData" version="0.1" byte_order="LittleEndian">
  <PolyData>
    <Piece NumberOfPoints="     19" NumberOfVerts="  0" NumberOfLines="     18"
           NumberOfStrips="  0" NumberOfPolys="      0">
      <Points>
        <DataArray type="Float32" NumberOfComponents="3" format="ascii">
                      -5.02199                      -1.47008                      90.29803
                      -5.05920                      -2.80995                      90.56494
                      -5.16375                      -5.50727                      91.00686
                      -5.28219                      -8.21307                      91.40402
                      -5.43783                     -11.60061                      91.87182
                      -5.55769                     -15.64087                      92.56419
                      -5.63973                     -19.65822                      93.37653
                      -5.72045                     -23.67617                      94.18633
                      -5.79671                     -27.69446                      94.99546
                      -5.86899                     -31.71333                      95.80255
                      -5.93848                     -35.73331                      96.60468
                      -6.00399                     -39.75400                      97.40388
                      -6.06598                     -43.77526                      98.20079
                      -6.12510                     -47.79694                      98.99598
                      -6.17976                     -51.81904                      99.78960
                      -6.22197                     -55.17109                     100.44992
                      -6.25336                     -57.85137                     100.98528
                      -6.27947                     -60.52166                     101.57396
                      -6.29622                     -61.86448                     101.82726
        </DataArray>
      </Points>
      <PointData>
        <DataArray type="Float32" Name="TranslationalVelocity" NumberOfComponents="3" format="ascii">
                      -0.01223                      -0.04846                      -0.24315
                      -0.03170                      -0.09223                      -0.46554
                      -0.07088                      -0.16407                      -0.91327
                      -0.11018                      -0.22829                      -1.36248
                      -0.15933                      -0.30372                      -1.92497
                      -0.21784                      -0.41698                      -2.59601
                      -0.27588                      -0.55076                      -3.26345
                      -0.33380                      -0.68417                      -3.93118
                      -0.39156                      -0.81759                      -4.59915
                      -0.44916                      -0.95076                      -5.26739
                      -0.50661                      -1.08318                      -5.93595
                      -0.56388                      -1.21521                      -6.60476
                      -0.62097                      -1.34693                      -7.27377
                      -0.67789                      -1.47842                      -7.94294
                      -0.73463                      -1.60974                      -8.61224
                      -0.78180                      -1.71905                      -9.17008
                      -0.81945                      -1.80771                      -9.61616
                      -0.85689                      -1.90533                     -10.06060
                      -0.87570                      -1.94726                     -10.28411
        </DataArray>
        <DataArray type="Float32" Name="RotationalVelocity" NumberOfComponents="3" format="ascii">
                       0.16598                       0.00016                      -0.01456
                       0.16598                       0.00016                      -0.01456
                       0.16600                       0.00016                      -0.01455
                       0.16603                       0.00016                      -0.01454
                       0.16606                       0.00017                      -0.01453
                       0.16611                       0.00017                      -0.01450
                       0.16616                       0.00018                      -0.01447
                       0.16620                       0.00019                      -0.01444
                       0.16625                       0.00020                      -0.01440
                       0.16628                       0.00020                      -0.01436
                       0.16632                       0.00021                      -0.01431
                       0.16635                       0.00022                      -0.01427
                       0.16637                       0.00023                      -0.01422
                       0.16639                       0.00023                      -0.01418
                       0.16641                       0.00024                      -0.01414
                       0.16642                       0.00024                      -0.01411
                       0.16642                       0.00024                      -0.01409
                       0.16643                       0.00024                      -0.01407
                       0.16643                       0.00024                      -0.01407
        </DataArray>
        <DataArray type="Float32" Name="TranslationalAcceleration" NumberOfComponents="3" format="ascii">
                      -0.00460                       0.03817                      -0.01510
                      -0.00262                       0.04739                      -0.01775
                      -0.00689                       0.13655                      -0.04846
                      -0.01021                       0.21948                      -0.07511
                      -0.01352                       0.31705                      -0.10509
                      -0.01712                       0.42680                      -0.14216
                      -0.02071                       0.53244                      -0.18127
                      -0.02429                       0.63787                      -0.22003
                      -0.02802                       0.74443                      -0.25903
                      -0.03195                       0.85254                      -0.29843
                      -0.03605                       0.96199                      -0.33807
                      -0.04026                       1.07208                      -0.37779
                      -0.04449                       1.18206                      -0.41734
                      -0.04866                       1.29128                      -0.45650
                      -0.05276                       1.39952                      -0.49519
                      -0.05614                       1.48928                      -0.52715
                      -0.05889                       1.56116                      -0.55295
                      -0.06187                       1.63334                      -0.58051
                      -0.06333                       1.67036                      -0.59338
        </DataArray>
        <DataArray type="Float32" Name="OrientationX" NumberOfComponents="3" format="ascii">
                       0.94950                      -0.08653                      -0.30161
                       0.94950                      -0.08644                      -0.30163
                       0.94950                      -0.08615                      -0.30170
                       0.94951                      -0.08574                      -0.30179
                       0.94952                      -0.08509                      -0.30194
                       0.95902                      -0.07846                      -0.27225
                       0.96527                      -0.07328                      -0.25078
                       0.97030                      -0.06852                      -0.23198
                       0.97520                      -0.06348                      -0.21204
                       0.97977                      -0.05824                      -0.19144
                       0.98367                      -0.05315                      -0.17193
                       0.98713                      -0.04805                      -0.15253
                       0.98991                      -0.04327                      -0.13494
                       0.99179                      -0.03933                      -0.12168
                       0.99345                      -0.03553                      -0.10858
                       0.99470                      -0.03247                      -0.09757
                       0.99554                      -0.03027                      -0.08935
                       0.99596                      -0.02896                      -0.08499
                       0.99596                      -0.02880                      -0.08504
        </DataArray>
        <DataArray type="Float32" Name="OrientationY" NumberOfComponents="3" format="ascii">
                       0.31266                       0.17995                       0.93266
                       0.31266                       0.17977                       0.93270
                       0.31265                       0.17932                       0.93279
                       0.31265                       0.17875                       0.93290
                       0.31265                       0.17794                       0.93305
                       0.28222                       0.17952                       0.94240
                       0.26013                       0.18023                       0.94860
                       0.24075                       0.18068                       0.95362
                       0.22020                       0.18120                       0.95848
                       0.19897                       0.18177                       0.96300
                       0.17884                       0.18227                       0.96685
                       0.15882                       0.18277                       0.97024
                       0.14064                       0.18317                       0.97297
                       0.12687                       0.18339                       0.97482
                       0.11328                       0.18362                       0.97645
                       0.10190                       0.18382                       0.97766
                       0.09341                       0.18397                       0.97848
                       0.08889                       0.18403                       0.97889
                       0.08891                       0.18401                       0.97889
        </DataArray>
        <DataArray type="Float32" Name="OrientationZ" NumberOfComponents="3" format="ascii">
                      -0.02642                      -0.97986                       0.19791
                      -0.02639                      -0.97990                       0.19772
                      -0.02626                      -0.98001                       0.19720
                      -0.02605                      -0.98015                       0.19653
                      -0.02567                      -0.98035                       0.19557
                      -0.02506                      -0.98062                       0.19431
                      -0.02432                      -0.98089                       0.19303
                      -0.02343                      -0.98115                       0.19181
                      -0.02242                      -0.98140                       0.19069
                      -0.02129                      -0.98162                       0.18968
                      -0.02005                      -0.98181                       0.18880
                      -0.01874                      -0.98198                       0.18805
                      -0.01738                      -0.98213                       0.18741
                      -0.01603                      -0.98225                       0.18687
                      -0.01475                      -0.98236                       0.18644
                      -0.01381                      -0.98242                       0.18615
                      -0.01318                      -0.98247                       0.18598
                      -0.01270                      -0.98249                       0.18586
                      -0.01254                      -0.98250                       0.18583
        </DataArray>
        <DataArray type="Float32" Name="Force" NumberOfComponents="3" format="ascii">
                      38.96135                      -0.46504                       2.89965
                      70.19871                      -0.99493                       4.43024
                      77.65934                      -0.23105                       9.13864
                      59.91965                       0.49066                      10.28138
                     413.57719                     -46.90721                    -179.09576
                     386.95130                     -39.36931                    -146.61799
                     400.19236                     -38.33448                    -141.61643
                     349.89625                     -30.85251                    -112.40606
                     311.33572                     -24.38772                     -86.60402
                     314.41514                     -22.82335                     -80.47525
                     292.05558                     -18.19854                     -61.81627
                     292.48400                     -16.56164                     -55.71136
                     251.19793                     -12.19061                     -39.55690
                     247.40688                     -11.00749                     -35.75665
                     241.38659                      -9.73141                     -31.48656
                     234.91811                      -8.70606                     -27.99870
                     221.78665                      -7.71462                     -24.64747
                     157.39461                      -5.28107                     -16.91389
                     149.16908                      -7.85200                     -30.34586
        </DataArray>
        <DataArray type="Float32" Name="Moment" NumberOfComponents="3" format="ascii">
                       0.00000                       0.00000                       0.00000
                       0.00000                       0.00000                       0.00000
                       0.00000                       0.00000                       0.00000
                       0.00000                       0.00000                       0.00000
                       7.36250                     283.28311                     -57.19320
                       7.52043                     297.63254                     -60.07141
                       6.89134                     282.48764                     -56.99308
                       6.36391                     272.07978                     -54.86926
                       5.59619                     251.36981                     -50.66791
                       4.87118                     231.67324                     -46.67259
                       3.77265                     191.54384                     -38.56583
                       3.20679                     175.26780                     -35.26726
                       2.64522                     156.86451                     -31.54444
                       2.16090                     139.89804                     -28.11520
                       1.73416                     122.85621                     -24.67598
                       1.42863                     108.79280                     -21.84192
                       1.14723                      91.93353                     -18.45188
                       0.52733                      43.98342                      -8.82598
                       0.36817                      31.14995                      -6.25027
        </DataArray>
      </PointData>
      <Lines>
        <DataArray type="Int32" Name="connectivity" format="ascii">
      0      1
      1      2
      2      3
      3      4
      4      5
      5      6
      6      7
      7      8
      8      9
      9     10
     10     11
     11     12
     12     13
     13     14
     14     15
     15     16
     16     17
     17     18
        </DataArray>
        <DataArray type="Int32" Name="offsets" format="ascii">
      2
      4
      6
      8
     10
     12
     14
     16
     18
     20
     22
     24
     26
     28
     30
     32
     34
     36
        </DataArray>
      </Lines>
    </Piece>
  </PolyData>
</VTKFile>
