<?xml version="1.0"?>
<VTKFile type="PolyData" version="0.1" byte_order="LittleEndian">
  <PolyData>
    <Piece NumberOfPoints="     22" NumberOfVerts="  0" NumberOfLines="     21"
           NumberOfStrips="  0" NumberOfPolys="      0">
      <Points>
        <DataArray type="Float32" NumberOfComponents="3" format="ascii">
                       0.00001                      -0.00000                       2.19000
                       0.00009                      -0.00000                       6.57000
                       0.00026                      -0.00001                      10.95000
                       0.00053                      -0.00002                      15.33000
                       0.00088                      -0.00003                      19.71000
                       0.00131                      -0.00004                      24.09000
                       0.00180                      -0.00006                      28.47000
                       0.00236                      -0.00008                      32.85000
                       0.00295                      -0.00011                      37.23000
                       0.00357                      -0.00013                      41.61000
                       0.00421                      -0.00016                      45.99000
                       0.00487                      -0.00020                      50.37000
                       0.00553                      -0.00024                      54.75000
                       0.00619                      -0.00028                      59.13000
                       0.00686                      -0.00033                      63.51000
                       0.00751                      -0.00038                      67.89000
                       0.00815                      -0.00044                      72.27000
                       0.00877                      -0.00050                      76.65000
                       0.00935                      -0.00056                      81.03000
                       0.00988                      -0.00062                      85.41000
                       0.01011                      -0.00066                      87.60000
                       0.00000                       0.00000                       0.00000
        </DataArray>
      </Points>
      <PointData>
        <DataArray type="Float32" Name="TranslationalVelocity" NumberOfComponents="3" format="ascii">
                      -0.00001                       0.00000                       0.00000
                      -0.00006                       0.00000                       0.00000
                      -0.00018                       0.00001                       0.00000
                      -0.00037                       0.00001                       0.00000
                      -0.00064                       0.00002                       0.00000
                      -0.00098                       0.00003                       0.00000
                      -0.00139                       0.00005                       0.00000
                      -0.00186                       0.00006                       0.00000
                      -0.00241                       0.00008                       0.00000
                      -0.00302                       0.00010                       0.00000
                      -0.00371                       0.00012                       0.00000
                      -0.00448                       0.00014                       0.00000
                      -0.00532                       0.00016                       0.00000
                      -0.00625                       0.00019                       0.00000
                      -0.00726                       0.00022                       0.00000
                      -0.00836                       0.00025                       0.00000
                      -0.00953                       0.00028                       0.00000
                      -0.01076                       0.00032                       0.00000
                      -0.01203                       0.00035                       0.00000
                      -0.01327                       0.00039                       0.00000
                      -0.01387                       0.00041                       0.00000
                       0.00000                      -0.00000                       0.00000
        </DataArray>
        <DataArray type="Float32" Name="RotationalVelocity" NumberOfComponents="3" format="ascii">
                      -0.00000                      -0.00001                       0.00000
                      -0.00000                      -0.00002                       0.00000
                      -0.00000                      -0.00004                       0.00000
                      -0.00000                      -0.00005                       0.00000
                      -0.00000                      -0.00007                       0.00000
                      -0.00000                      -0.00009                       0.00000
                      -0.00000                      -0.00010                       0.00000
                      -0.00000                      -0.00012                       0.00000
                      -0.00000                      -0.00013                       0.00000
                      -0.00000                      -0.00015                       0.00000
                      -0.00000                      -0.00017                       0.00000
                      -0.00001                      -0.00018                       0.00000
                      -0.00001                      -0.00020                       0.00000
                      -0.00001                      -0.00022                       0.00000
                      -0.00001                      -0.00024                       0.00000
                      -0.00001                      -0.00026                       0.00000
                      -0.00001                      -0.00028                       0.00000
                      -0.00001                      -0.00029                       0.00000
                      -0.00001                      -0.00029                       0.00000
                      -0.00001                      -0.00028                       0.00000
                      -0.00001                      -0.00027                       0.00000
                       0.00000                      -0.00000                       0.00000
        </DataArray>
        <DataArray type="Float32" Name="TranslationalAcceleration" NumberOfComponents="3" format="ascii">
                      -0.00001                       0.00000                       0.00000
                      -0.00005                       0.00000                       0.00000
                      -0.00015                       0.00001                       0.00000
                      -0.00028                       0.00002                      -0.00000
                      -0.00044                       0.00003                      -0.00000
                      -0.00062                       0.00004                      -0.00000
                      -0.00079                       0.00006                      -0.00000
                      -0.00095                       0.00008                      -0.00000
                      -0.00108                       0.00011                      -0.00000
                      -0.00115                       0.00014                      -0.00000
                      -0.00114                       0.00018                      -0.00000
                      -0.00105                       0.00022                      -0.00000
                      -0.00084                       0.00027                      -0.00000
                      -0.00052                       0.00033                      -0.00000
                      -0.00006                       0.00039                      -0.00000
                       0.00053                       0.00047                      -0.00000
                       0.00125                       0.00054                      -0.00000
                       0.00210                       0.00063                      -0.00000
                       0.00304                       0.00072                      -0.00000
                       0.00405                       0.00082                      -0.00000
                       0.00457                       0.00086                      -0.00000
                       0.00000                      -0.00000                       0.00000
        </DataArray>
        <DataArray type="Float32" Name="RotationalAcceleration" NumberOfComponents="3" format="ascii">
                      -0.00000                      -0.00001                       0.00000
                      -0.00000                      -0.00002                       0.00000
                      -0.00000                      -0.00003                       0.00000
                      -0.00000                      -0.00003                       0.00000
                      -0.00000                      -0.00004                       0.00000
                      -0.00000                      -0.00004                       0.00000
                      -0.00000                      -0.00004                       0.00000
                      -0.00001                      -0.00003                       0.00000
                      -0.00001                      -0.00002                       0.00000
                      -0.00001                      -0.00001                       0.00000
                      -0.00001                       0.00001                       0.00000
                      -0.00001                       0.00003                       0.00000
                      -0.00001                       0.00006                       0.00000
                      -0.00001                       0.00009                       0.00000
                      -0.00002                       0.00012                       0.00000
                      -0.00002                       0.00015                       0.00000
                      -0.00002                       0.00018                       0.00000
                      -0.00002                       0.00021                       0.00000
                      -0.00002                       0.00022                       0.00000
                      -0.00002                       0.00024                       0.00000
                      -0.00002                       0.00024                       0.00000
                       0.00000                      -0.00000                       0.00000
        </DataArray>
        <DataArray type="Float32" Name="OrientationX" NumberOfComponents="3" format="ascii">
                       1.00000                       0.00000                      -0.00001
                       1.00000                       0.00000                      -0.00003
                       1.00000                       0.00000                      -0.00005
                       1.00000                       0.00000                      -0.00007
                       1.00000                       0.00000                      -0.00009
                       1.00000                       0.00000                      -0.00011
                       1.00000                       0.00000                      -0.00012
                       1.00000                       0.00000                      -0.00013
                       1.00000                       0.00000                      -0.00014
                       1.00000                       0.00000                      -0.00014
                       1.00000                       0.00000                      -0.00015
                       1.00000                       0.00000                      -0.00015
                       1.00000                       0.00000                      -0.00015
                       1.00000                       0.00000                      -0.00015
                       1.00000                       0.00000                      -0.00015
                       1.00000                       0.00000                      -0.00015
                       1.00000                       0.00000                      -0.00014
                       1.00000                       0.00000                      -0.00014
                       1.00000                       0.00000                      -0.00013
                       1.00000                       0.00000                      -0.00011
                       1.00000                       0.00000                      -0.00010
                       1.00000                      -0.00000                       0.00000
        </DataArray>
        <DataArray type="Float32" Name="OrientationY" NumberOfComponents="3" format="ascii">
                       0.00000                       1.00000                       0.00000
                       0.00000                       1.00000                       0.00000
                       0.00000                       1.00000                       0.00000
                       0.00000                       1.00000                       0.00000
                       0.00000                       1.00000                       0.00000
                       0.00000                       1.00000                       0.00000
                       0.00000                       1.00000                       0.00000
                       0.00000                       1.00000                       0.00000
                       0.00000                       1.00000                       0.00001
                       0.00000                       1.00000                       0.00001
                       0.00000                       1.00000                       0.00001
                       0.00000                       1.00000                       0.00001
                       0.00000                       1.00000                       0.00001
                       0.00000                       1.00000                       0.00001
                       0.00000                       1.00000                       0.00001
                       0.00000                       1.00000                       0.00001
                       0.00000                       1.00000                       0.00001
                       0.00000                       1.00000                       0.00001
                       0.00000                       1.00000                       0.00001
                       0.00000                       1.00000                       0.00001
                       0.00000                       1.00000                       0.00002
                      -0.00000                       1.00000                      -0.00000
        </DataArray>
        <DataArray type="Float32" Name="OrientationZ" NumberOfComponents="3" format="ascii">
                       0.00001                      -0.00000                       1.00000
                       0.00003                      -0.00000                       1.00000
                       0.00005                      -0.00000                       1.00000
                       0.00007                      -0.00000                       1.00000
                       0.00009                      -0.00000                       1.00000
                       0.00011                      -0.00000                       1.00000
                       0.00012                      -0.00000                       1.00000
                       0.00013                      -0.00000                       1.00000
                       0.00014                      -0.00001                       1.00000
                       0.00014                      -0.00001                       1.00000
                       0.00015                      -0.00001                       1.00000
                       0.00015                      -0.00001                       1.00000
                       0.00015                      -0.00001                       1.00000
                       0.00015                      -0.00001                       1.00000
                       0.00015                      -0.00001                       1.00000
                       0.00015                      -0.00001                       1.00000
                       0.00014                      -0.00001                       1.00000
                       0.00014                      -0.00001                       1.00000
                       0.00013                      -0.00001                       1.00000
                       0.00011                      -0.00001                       1.00000
                       0.00010                      -0.00002                       1.00000
                       0.00000                      -0.00000                       1.00000
        </DataArray>
      </PointData>
      <Lines>
        <DataArray type="Int32" Name="connectivity" format="ascii">
      0      1
      1      2
      2      3
      3      4
      4      5
      5      6
      6      7
      7      8
      8      9
      9     10
     10     11
     11     12
     12     13
     13     14
     14     15
     15     16
     16     17
     17     18
     18     19
     19     20
     21      0
        </DataArray>
        <DataArray type="Int32" Name="offsets" format="ascii">
      2
      4
      6
      8
     10
     12
     14
     16
     18
     20
     22
     24
     26
     28
     30
     32
     34
     36
     38
     40
     42
        </DataArray>
      </Lines>
    </Piece>
  </PolyData>
</VTKFile>
