<?xml version="1.0"?>
<VTKFile type="PolyData" version="0.1" byte_order="LittleEndian">
  <PolyData>
    <Piece NumberOfPoints="     19" NumberOfVerts="  0" NumberOfLines="     18"
           NumberOfStrips="  0" NumberOfPolys="      0">
      <Points>
        <DataArray type="Float32" NumberOfComponents="3" format="ascii">
                      -4.91408                       0.45631                      91.42955
                      -4.86032                       0.86885                      92.73138
                      -4.77226                       1.60379                      95.36458
                      -4.69305                       2.29638                      98.01175
                      -4.59871                       3.13738                     101.32904
                      -4.43481                       4.28471                     105.26346
                      -4.24806                       5.55744                     109.15669
                      -4.06079                       6.83378                     113.04869
                      -3.87003                       8.11533                     116.93880
                      -3.67595                       9.40009                     120.82767
                      -3.47920                      10.68437                     124.71651
                      -3.27855                      11.96942                     128.60486
                      -3.07421                      13.25505                     132.49280
                      -2.86655                      14.54111                     136.38041
                      -2.65365                      15.82742                     140.26765
                      -2.47204                      16.89956                     143.50676
                      -2.32461                      17.76490                     146.09540
                      -2.17738                      18.68280                     148.66710
                      -2.10248                      19.10215                     149.96560
        </DataArray>
      </Points>
      <PointData>
        <DataArray type="Float32" Name="TranslationalVelocity" NumberOfComponents="3" format="ascii">
                       0.01471                      -0.33945                       0.10850
                       0.02342                      -0.64883                       0.20618
                       0.03899                      -1.27444                       0.38027
                       0.05376                      -1.90358                       0.54441
                       0.07185                      -2.69253                       0.74384
                       0.09669                      -3.63034                       1.01614
                       0.12453                      -4.55996                       1.31854
                       0.15291                      -5.49039                       1.62215
                       0.18195                      -6.42145                       1.92732
                       0.21166                      -7.35319                       2.23355
                       0.24202                      -8.28575                       2.53990
                       0.27309                      -9.21891                       2.84662
                       0.30487                     -10.15255                       3.15362
                       0.33737                     -11.08654                       3.46081
                       0.37055                     -12.02085                       3.76813
                       0.39869                     -12.79964                       4.02431
                       0.42163                     -13.42220                       4.23110
                       0.44588                     -14.04082                       4.45049
                       0.45725                     -14.35324                       4.55073
        </DataArray>
        <DataArray type="Float32" Name="RotationalVelocity" NumberOfComponents="3" format="ascii">
                       0.23675                       0.00010                      -0.02080
                       0.23679                       0.00010                      -0.02081
                       0.23691                       0.00011                      -0.02082
                       0.23706                       0.00014                      -0.02083
                       0.23728                       0.00019                      -0.02086
                       0.23756                       0.00027                      -0.02090
                       0.23784                       0.00036                      -0.02094
                       0.23810                       0.00047                      -0.02100
                       0.23834                       0.00060                      -0.02106
                       0.23854                       0.00074                      -0.02112
                       0.23872                       0.00089                      -0.02118
                       0.23886                       0.00105                      -0.02125
                       0.23898                       0.00121                      -0.02131
                       0.23907                       0.00137                      -0.02137
                       0.23915                       0.00152                      -0.02142
                       0.23919                       0.00163                      -0.02145
                       0.23922                       0.00170                      -0.02146
                       0.23924                       0.00176                      -0.02147
                       0.23924                       0.00178                      -0.02147
        </DataArray>
        <DataArray type="Float32" Name="TranslationalAcceleration" NumberOfComponents="3" format="ascii">
                      -0.01630                      -0.03873                      -0.07769
                      -0.01122                      -0.04451                      -0.09334
                      -0.03111                      -0.12266                      -0.26907
                      -0.04815                      -0.19153                      -0.43232
                      -0.06670                      -0.26996                      -0.62419
                      -0.08601                      -0.36560                      -0.83917
                      -0.10369                      -0.46543                      -1.04548
                      -0.12104                      -0.56536                      -1.25154
                      -0.13858                      -0.66683                      -1.46000
                      -0.15642                      -0.77013                      -1.67173
                      -0.17441                      -0.87484                      -1.88625
                      -0.19221                      -0.98037                      -2.10220
                      -0.20946                      -1.08595                      -2.31800
                      -0.22582                      -1.19091                      -2.53236
                      -0.24112                      -1.29499                      -2.74482
                      -0.25313                      -1.38125                      -2.92102
                      -0.26241                      -1.45088                      -3.06212
                      -0.27155                      -1.52426                      -3.20351
                      -0.27630                      -1.55933                      -3.27638
        </DataArray>
        <DataArray type="Float32" Name="OrientationX" NumberOfComponents="3" format="ascii">
                       0.97816                      -0.20633                       0.02500
                       0.97816                      -0.20634                       0.02496
                       0.97816                      -0.20638                       0.02485
                       0.97815                      -0.20643                       0.02470
                       0.97814                      -0.20652                       0.02444
                       0.98413                      -0.17690                       0.01423
                       0.98781                      -0.15553                       0.00661
                       0.99059                      -0.13687                      -0.00025
                       0.99309                      -0.11715                      -0.00761
                       0.99518                      -0.09687                      -0.01530
                       0.99671                      -0.07774                      -0.02278
                       0.99781                      -0.05880                      -0.03033
                       0.99843                      -0.04173                      -0.03739
                       0.99865                      -0.02894                      -0.04312
                       0.99868                      -0.01637                      -0.04876
                       0.99856                      -0.00583                      -0.05340
                       0.99838                       0.00203                      -0.05681
                       0.99825                       0.00615                      -0.05884
                       0.99823                       0.00605                      -0.05909
        </DataArray>
        <DataArray type="Float32" Name="OrientationY" NumberOfComponents="3" format="ascii">
                       0.20398                       0.92999                      -0.30579
                       0.20398                       0.92997                      -0.30586
                       0.20397                       0.92991                      -0.30603
                       0.20397                       0.92984                      -0.30625
                       0.20396                       0.92974                      -0.30657
                       0.17265                       0.93572                      -0.30759
                       0.14997                       0.93942                      -0.30823
                       0.13011                       0.94223                      -0.30866
                       0.10909                       0.94481                      -0.30892
                       0.08743                       0.94705                      -0.30896
                       0.06694                       0.94877                      -0.30881
                       0.04662                       0.95009                      -0.30846
                       0.02821                       0.95097                      -0.30799
                       0.01430                       0.95143                      -0.30755
                       0.00061                       0.95171                      -0.30701
                      -0.01084                       0.95181                      -0.30648
                      -0.01935                       0.95182                      -0.30605
                      -0.02389                       0.95179                      -0.30582
                      -0.02387                       0.95178                      -0.30584
        </DataArray>
        <DataArray type="Float32" Name="OrientationZ" NumberOfComponents="3" format="ascii">
                       0.03985                       0.30421                       0.95177
                       0.03990                       0.30427                       0.95175
                       0.04005                       0.30442                       0.95170
                       0.04026                       0.30460                       0.95163
                       0.04059                       0.30485                       0.95153
                       0.04110                       0.30517                       0.95141
                       0.04173                       0.30546                       0.95129
                       0.04248                       0.30573                       0.95117
                       0.04338                       0.30595                       0.95106
                       0.04442                       0.30613                       0.95095
                       0.04562                       0.30627                       0.95085
                       0.04695                       0.30637                       0.95075
                       0.04841                       0.30645                       0.95065
                       0.04993                       0.30652                       0.95056
                       0.05144                       0.30657                       0.95046
                       0.05262                       0.30662                       0.95038
                       0.05345                       0.30666                       0.95032
                       0.05413                       0.30669                       0.95027
                       0.05439                       0.30671                       0.95025
        </DataArray>
        <DataArray type="Float32" Name="Force" NumberOfComponents="3" format="ascii">
                       0.06511                       0.04048                      -0.01567
                      69.93321                       4.81023                      -4.46904
                      77.39657                      11.24770                      -6.85206
                      59.92066                      13.26396                      -6.77477
                     452.10220                    -142.46023                      26.24689
                     428.94309                    -114.60182                      18.09781
                     457.78123                    -111.86051                      15.67093
                     408.31614                     -87.63577                       9.77198
                     370.76550                     -64.83527                       3.81092
                     384.77419                     -59.37843                       1.00413
                     362.79586                     -40.72069                      -4.39139
                     372.38288                     -34.51876                      -7.35930
                     324.87289                     -20.62867                      -9.95157
                     332.79703                     -20.47508                     -10.93705
                     341.14182                     -21.67003                     -11.53604
                     346.89251                     -22.89847                     -11.88567
                     342.01560                     -24.57306                     -11.37967
                     255.78102                     -21.50977                      -7.69067
                     101.73302                       0.21301                      -5.89343
        </DataArray>
        <DataArray type="Float32" Name="Moment" NumberOfComponents="3" format="ascii">
                       0.00000                       0.00000                       0.00000
                       0.00000                       0.00000                       0.00000
                       0.00000                       0.00000                       0.00000
                       0.00000                       0.00000                       0.00000
                     -11.80077                     -88.40488                    -276.56712
                     -12.84131                     -94.98993                    -297.15371
                     -12.62217                     -91.95006                    -287.62734
                     -12.72641                     -91.05245                    -284.79954
                     -12.34560                     -86.50131                    -270.54178
                     -11.94362                     -81.71663                    -255.55251
                     -10.34539                     -68.92749                    -215.53321
                      -9.97901                     -64.59473                    -201.95989
                      -9.44222                     -59.28866                    -185.34523
                      -8.86244                     -53.95780                    -168.65653
                      -8.17705                     -48.32592                    -151.03184
                      -7.51425                     -43.41471                    -135.66816
                      -6.50778                     -37.01518                    -115.66116
                      -3.17083                     -17.80967                     -55.64631
                      -1.57085                      -8.78032                     -27.43345
        </DataArray>
      </PointData>
      <Lines>
        <DataArray type="Int32" Name="connectivity" format="ascii">
      0      1
      1      2
      2      3
      3      4
      4      5
      5      6
      6      7
      7      8
      8      9
      9     10
     10     11
     11     12
     12     13
     13     14
     14     15
     15     16
     16     17
     17     18
        </DataArray>
        <DataArray type="Int32" Name="offsets" format="ascii">
      2
      4
      6
      8
     10
     12
     14
     16
     18
     20
     22
     24
     26
     28
     30
     32
     34
     36
        </DataArray>
      </Lines>
    </Piece>
  </PolyData>
</VTKFile>
