<?xml version="1.0"?>
<VTKFile type="PolyData" version="0.1" byte_order="LittleEndian">
  <PolyData>
    <Piece NumberOfPoints="     22" NumberOfVerts="  0" NumberOfLines="     21"
           NumberOfStrips="  0" NumberOfPolys="      0">
      <Points>
        <DataArray type="Float32" NumberOfComponents="3" format="ascii">
                       0.00002                       0.00000                       2.19000
                       0.00016                       0.00000                       6.57000
                       0.00047                       0.00001                      10.95000
                       0.00096                       0.00001                      15.33000
                       0.00161                       0.00002                      19.71000
                       0.00242                       0.00002                      24.09000
                       0.00338                       0.00003                      28.47000
                       0.00447                       0.00003                      32.85000
                       0.00566                       0.00004                      37.23000
                       0.00697                       0.00005                      41.61000
                       0.00836                       0.00005                      45.99000
                       0.00984                       0.00006                      50.37000
                       0.01141                       0.00006                      54.75000
                       0.01306                       0.00006                      59.13000
                       0.01479                       0.00006                      63.51000
                       0.01660                       0.00005                      67.89000
                       0.01846                       0.00005                      72.27000
                       0.02036                       0.00004                      76.65000
                       0.02225                       0.00002                      81.03000
                       0.02405                       0.00001                      85.41000
                       0.02490                       0.00000                      87.60000
                       0.00000                       0.00000                       0.00000
        </DataArray>
      </Points>
      <PointData>
        <DataArray type="Float32" Name="TranslationalVelocity" NumberOfComponents="3" format="ascii">
                       0.00000                       0.00000                      -0.00000
                       0.00002                       0.00000                      -0.00000
                       0.00007                       0.00000                      -0.00000
                       0.00014                       0.00000                      -0.00000
                       0.00024                      -0.00000                      -0.00000
                       0.00038                      -0.00000                      -0.00000
                       0.00053                      -0.00000                      -0.00000
                       0.00072                      -0.00000                      -0.00000
                       0.00093                      -0.00000                      -0.00000
                       0.00117                      -0.00000                      -0.00000
                       0.00143                      -0.00001                      -0.00000
                       0.00173                      -0.00001                      -0.00000
                       0.00206                      -0.00001                      -0.00000
                       0.00242                      -0.00002                      -0.00000
                       0.00281                      -0.00002                      -0.00000
                       0.00324                      -0.00003                      -0.00000
                       0.00370                      -0.00003                      -0.00000
                       0.00418                      -0.00004                      -0.00000
                       0.00468                      -0.00005                      -0.00000
                       0.00517                      -0.00006                      -0.00000
                       0.00540                      -0.00006                      -0.00000
                       0.00000                      -0.00000                       0.00000
        </DataArray>
        <DataArray type="Float32" Name="RotationalVelocity" NumberOfComponents="3" format="ascii">
                      -0.00000                       0.00000                       0.00000
                      -0.00000                       0.00001                       0.00000
                      -0.00000                       0.00001                       0.00000
                       0.00000                       0.00002                       0.00000
                       0.00000                       0.00003                       0.00000
                       0.00000                       0.00003                       0.00000
                       0.00000                       0.00004                       0.00000
                       0.00000                       0.00005                       0.00000
                       0.00000                       0.00005                       0.00000
                       0.00000                       0.00006                       0.00000
                       0.00000                       0.00006                       0.00000
                       0.00000                       0.00007                       0.00000
                       0.00000                       0.00008                       0.00000
                       0.00000                       0.00009                       0.00000
                       0.00000                       0.00009                       0.00000
                       0.00000                       0.00010                       0.00000
                       0.00000                       0.00011                       0.00000
                       0.00000                       0.00011                       0.00000
                       0.00000                       0.00011                       0.00000
                       0.00000                       0.00011                       0.00000
                       0.00000                       0.00011                       0.00000
                       0.00000                      -0.00000                       0.00000
        </DataArray>
        <DataArray type="Float32" Name="TranslationalAcceleration" NumberOfComponents="3" format="ascii">
                      -0.00000                      -0.00000                       0.00000
                      -0.00004                      -0.00001                       0.00000
                      -0.00012                      -0.00003                       0.00000
                      -0.00024                      -0.00007                       0.00000
                      -0.00041                      -0.00010                       0.00000
                      -0.00062                      -0.00015                       0.00000
                      -0.00087                      -0.00021                       0.00000
                      -0.00116                      -0.00028                       0.00000
                      -0.00149                      -0.00035                       0.00000
                      -0.00185                      -0.00044                       0.00000
                      -0.00225                      -0.00054                       0.00000
                      -0.00268                      -0.00064                       0.00000
                      -0.00315                      -0.00077                       0.00000
                      -0.00366                      -0.00090                       0.00000
                      -0.00421                      -0.00104                       0.00000
                      -0.00480                      -0.00120                       0.00000
                      -0.00542                      -0.00136                       0.00000
                      -0.00606                      -0.00153                       0.00000
                      -0.00671                      -0.00172                       0.00000
                      -0.00734                      -0.00190                       0.00000
                      -0.00765                      -0.00200                       0.00000
                       0.00000                      -0.00000                       0.00000
        </DataArray>
        <DataArray type="Float32" Name="RotationalAcceleration" NumberOfComponents="3" format="ascii">
                       0.00000                      -0.00000                       0.00000
                       0.00000                      -0.00001                       0.00000
                       0.00001                      -0.00002                       0.00000
                       0.00001                      -0.00003                       0.00000
                       0.00001                      -0.00004                       0.00000
                       0.00001                      -0.00005                       0.00000
                       0.00001                      -0.00006                       0.00000
                       0.00002                      -0.00007                       0.00000
                       0.00002                      -0.00008                       0.00000
                       0.00002                      -0.00009                       0.00000
                       0.00002                      -0.00009                       0.00000
                       0.00003                      -0.00010                       0.00000
                       0.00003                      -0.00011                       0.00000
                       0.00003                      -0.00012                       0.00000
                       0.00003                      -0.00013                       0.00000
                       0.00004                      -0.00014                       0.00000
                       0.00004                      -0.00014                       0.00000
                       0.00004                      -0.00015                       0.00000
                       0.00004                      -0.00015                       0.00000
                       0.00004                      -0.00014                       0.00000
                       0.00004                      -0.00013                       0.00000
                       0.00000                      -0.00000                       0.00000
        </DataArray>
        <DataArray type="Float32" Name="OrientationX" NumberOfComponents="3" format="ascii">
                       1.00000                      -0.00000                      -0.00002
                       1.00000                      -0.00000                      -0.00005
                       1.00000                      -0.00000                      -0.00009
                       1.00000                      -0.00000                      -0.00013
                       1.00000                      -0.00000                      -0.00017
                       1.00000                      -0.00000                      -0.00020
                       1.00000                      -0.00000                      -0.00023
                       1.00000                      -0.00000                      -0.00026
                       1.00000                      -0.00000                      -0.00029
                       1.00000                      -0.00000                      -0.00031
                       1.00000                      -0.00000                      -0.00033
                       1.00000                      -0.00000                      -0.00035
                       1.00000                      -0.00000                      -0.00037
                       1.00000                       0.00000                      -0.00039
                       1.00000                       0.00000                      -0.00040
                       1.00000                       0.00000                      -0.00042
                       1.00000                       0.00000                      -0.00043
                       1.00000                       0.00000                      -0.00043
                       1.00000                       0.00000                      -0.00042
                       1.00000                       0.00000                      -0.00040
                       1.00000                       0.00000                      -0.00037
                       1.00000                      -0.00000                       0.00000
        </DataArray>
        <DataArray type="Float32" Name="OrientationY" NumberOfComponents="3" format="ascii">
                      -0.00000                       1.00000                      -0.00000
                      -0.00000                       1.00000                      -0.00000
                      -0.00000                       1.00000                      -0.00000
                      -0.00000                       1.00000                      -0.00000
                      -0.00000                       1.00000                      -0.00000
                      -0.00000                       1.00000                      -0.00000
                      -0.00000                       1.00000                      -0.00000
                      -0.00000                       1.00000                      -0.00000
                      -0.00000                       1.00000                      -0.00000
                      -0.00000                       1.00000                      -0.00000
                      -0.00000                       1.00000                      -0.00000
                      -0.00000                       1.00000                      -0.00000
                      -0.00000                       1.00000                      -0.00000
                       0.00000                       1.00000                       0.00000
                       0.00000                       1.00000                       0.00000
                       0.00000                       1.00000                       0.00000
                       0.00000                       1.00000                       0.00000
                       0.00000                       1.00000                       0.00000
                       0.00000                       1.00000                       0.00000
                       0.00000                       1.00000                       0.00000
                       0.00000                       1.00000                       0.00000
                      -0.00000                       1.00000                      -0.00000
        </DataArray>
        <DataArray type="Float32" Name="OrientationZ" NumberOfComponents="3" format="ascii">
                       0.00002                       0.00000                       1.00000
                       0.00005                       0.00000                       1.00000
                       0.00009                       0.00000                       1.00000
                       0.00013                       0.00000                       1.00000
                       0.00017                       0.00000                       1.00000
                       0.00020                       0.00000                       1.00000
                       0.00023                       0.00000                       1.00000
                       0.00026                       0.00000                       1.00000
                       0.00029                       0.00000                       1.00000
                       0.00031                       0.00000                       1.00000
                       0.00033                       0.00000                       1.00000
                       0.00035                       0.00000                       1.00000
                       0.00037                       0.00000                       1.00000
                       0.00039                      -0.00000                       1.00000
                       0.00040                      -0.00000                       1.00000
                       0.00042                      -0.00000                       1.00000
                       0.00043                      -0.00000                       1.00000
                       0.00043                      -0.00000                       1.00000
                       0.00042                      -0.00000                       1.00000
                       0.00040                      -0.00000                       1.00000
                       0.00037                      -0.00000                       1.00000
                       0.00000                      -0.00000                       1.00000
        </DataArray>
      </PointData>
      <Lines>
        <DataArray type="Int32" Name="connectivity" format="ascii">
      0      1
      1      2
      2      3
      3      4
      4      5
      5      6
      6      7
      7      8
      8      9
      9     10
     10     11
     11     12
     12     13
     13     14
     14     15
     15     16
     16     17
     17     18
     18     19
     19     20
     21      0
        </DataArray>
        <DataArray type="Int32" Name="offsets" format="ascii">
      2
      4
      6
      8
     10
     12
     14
     16
     18
     20
     22
     24
     26
     28
     30
     32
     34
     36
     38
     40
     42
        </DataArray>
      </Lines>
    </Piece>
  </PolyData>
</VTKFile>
