<?xml version="1.0"?>
<VTKFile type="PolyData" version="0.1" byte_order="LittleEndian">
  <PolyData>
    <Piece NumberOfPoints="     19" NumberOfVerts="  0" NumberOfLines="     18"
           NumberOfStrips="  0" NumberOfPolys="      0">
      <Points>
        <DataArray type="Float32" NumberOfComponents="3" format="ascii">
                      -5.14003                       1.04385                      88.93637
                      -5.28558                       1.99772                      87.96844
                      -5.59288                       3.97206                      86.10040
                      -5.90765                       5.97751                      84.26376
                      -6.30522                       8.50222                      81.98563
                      -6.73756                      11.42880                      79.14409
                      -7.15262                      14.26037                      76.20718
                      -7.56853                      17.08773                      73.26640
                      -7.98269                      19.90985                      70.32037
                      -8.39550                      22.72836                      67.37076
                      -8.80776                      25.54617                      64.42051
                      -9.21856                      28.36255                      61.46877
                      -9.62830                      31.17781                      58.51587
                     -10.03749                      33.99222                      55.56215
                     -10.44428                      36.80609                      52.60763
                     -10.78129                      39.15064                      50.14494
                     -11.05031                      41.02030                      48.16905
                     -11.32252                      42.84995                      46.15496
                     -11.45630                      43.79468                      45.17659
        </DataArray>
      </Points>
      <PointData>
        <DataArray type="Float32" Name="TranslationalVelocity" NumberOfComponents="3" format="ascii">
                       0.01383                       0.12443                       0.12127
                       0.02346                       0.23802                       0.23175
                       0.04341                       0.45742                       0.46037
                       0.06366                       0.67318                       0.69248
                       0.08911                       0.94073                       0.98452
                       0.11853                       1.27356                       1.32279
                       0.14689                       1.61695                       1.64980
                       0.17513                       1.96052                       1.97607
                       0.20321                       2.30441                       2.30151
                       0.23118                       2.64846                       2.62633
                       0.25907                       2.99239                       2.95090
                       0.28690                       3.33632                       3.27517
                       0.31468                       3.68025                       3.59921
                       0.34244                       4.02419                       3.92308
                       0.37021                       4.36812                       4.24682
                       0.39337                       4.65475                       4.51653
                       0.41187                       4.88468                       4.73158
                       0.42999                       5.11900                       4.94199
                       0.43937                       5.23282                       5.05062
        </DataArray>
        <DataArray type="Float32" Name="RotationalVelocity" NumberOfComponents="3" format="ascii">
                       0.11583                       0.00006                      -0.01016
                       0.11582                       0.00006                      -0.01016
                       0.11578                       0.00006                      -0.01015
                       0.11573                       0.00006                      -0.01015
                       0.11565                       0.00006                      -0.01013
                       0.11556                       0.00007                      -0.01011
                       0.11546                       0.00008                      -0.01009
                       0.11538                       0.00009                      -0.01006
                       0.11530                       0.00010                      -0.01004
                       0.11523                       0.00011                      -0.01003
                       0.11518                       0.00012                      -0.01001
                       0.11513                       0.00012                      -0.01000
                       0.11510                       0.00012                      -0.00999
                       0.11507                       0.00012                      -0.00999
                       0.11505                       0.00011                      -0.00999
                       0.11503                       0.00010                      -0.00999
                       0.11502                       0.00009                      -0.00999
                       0.11502                       0.00008                      -0.01000
                       0.11501                       0.00008                      -0.01000
        </DataArray>
        <DataArray type="Float32" Name="TranslationalAcceleration" NumberOfComponents="3" format="ascii">
                      -0.02056                      -0.01000                       0.01659
                      -0.00424                      -0.01196                       0.02183
                      -0.00934                      -0.03509                       0.06223
                      -0.01076                      -0.05708                       0.09944
                      -0.00906                      -0.08309                       0.14314
                      -0.00378                      -0.11067                       0.19389
                       0.00306                      -0.13549                       0.24424
                       0.01000                      -0.15995                       0.29455
                       0.01637                      -0.18443                       0.34545
                       0.02194                      -0.20906                       0.39711
                       0.02683                      -0.23383                       0.44941
                       0.03136                      -0.25857                       0.50208
                       0.03594                      -0.28308                       0.55476
                       0.04090                      -0.30723                       0.60718
                       0.04634                      -0.33099                       0.65921
                       0.05112                      -0.35062                       0.70237
                       0.05488                      -0.36623                       0.73702
                       0.05828                      -0.38131                       0.77237
                       0.05966                      -0.38952                       0.79003
        </DataArray>
        <DataArray type="Float32" Name="OrientationX" NumberOfComponents="3" format="ascii">
                       0.97986                       0.19467                       0.04449
                       0.97986                       0.19466                       0.04450
                       0.97986                       0.19463                       0.04453
                       0.97987                       0.19460                       0.04457
                       0.97988                       0.19454                       0.04464
                       0.98480                       0.17225                       0.02237
                       0.98774                       0.15598                       0.00640
                       0.98989                       0.14161                      -0.00744
                       0.99175                       0.12632                      -0.02198
                       0.99320                       0.11046                      -0.03686
                       0.99415                       0.09533                      -0.05081
                       0.99469                       0.08022                      -0.06453
                       0.99483                       0.06642                      -0.07682
                       0.99474                       0.05579                      -0.08594
                       0.99446                       0.04531                      -0.09487
                       0.99408                       0.03657                      -0.10235
                       0.99370                       0.03009                      -0.10791
                       0.99349                       0.02654                      -0.11078
                       0.99351                       0.02646                      -0.11065
        </DataArray>
        <DataArray type="Float32" Name="OrientationY" NumberOfComponents="3" format="ascii">
                       0.16918                      -0.69092                      -0.70286
                       0.16919                      -0.69102                      -0.70276
                       0.16923                      -0.69128                      -0.70249
                       0.16929                      -0.69160                      -0.70216
                       0.16937                      -0.69207                      -0.70168
                       0.13812                      -0.69851                      -0.70215
                       0.11554                      -0.70286                      -0.70188
                       0.09579                      -0.70639                      -0.70131
                       0.07487                      -0.70972                      -0.70049
                       0.05331                      -0.71272                      -0.69942
                       0.03290                      -0.71520                      -0.69815
                       0.01266                      -0.71728                      -0.69667
                      -0.00569                      -0.71887                      -0.69512
                      -0.01956                      -0.71991                      -0.69379
                      -0.03321                      -0.72075                      -0.69240
                      -0.04462                      -0.72132                      -0.69116
                      -0.05310                      -0.72167                      -0.69020
                      -0.05762                      -0.72184                      -0.68966
                      -0.05759                      -0.72185                      -0.68964
        </DataArray>
        <DataArray type="Float32" Name="OrientationZ" NumberOfComponents="3" format="ascii">
                      -0.10608                       0.69623                      -0.70994
                      -0.10604                       0.69613                      -0.71004
                      -0.10595                       0.69588                      -0.71030
                      -0.10581                       0.69557                      -0.71063
                      -0.10562                       0.69512                      -0.71109
                      -0.10532                       0.69456                      -0.71168
                      -0.10498                       0.69401                      -0.71227
                      -0.10457                       0.69351                      -0.71282
                      -0.10409                       0.69306                      -0.71332
                      -0.10353                       0.69269                      -0.71376
                      -0.10289                       0.69239                      -0.71415
                      -0.10217                       0.69215                      -0.71448
                      -0.10139                       0.69197                      -0.71477
                      -0.10057                       0.69182                      -0.71503
                      -0.09975                       0.69171                      -0.71525
                      -0.09910                       0.69163                      -0.71542
                      -0.09865                       0.69159                      -0.71553
                      -0.09827                       0.69155                      -0.71561
                      -0.09812                       0.69154                      -0.71564
        </DataArray>
        <DataArray type="Float32" Name="Force" NumberOfComponents="3" format="ascii">
                      64.17745                       4.14683                      -5.52287
                      57.54060                       4.67526                      -4.00925
                      69.23701                       3.70045                      -6.70022
                      54.58834                       0.74012                      -7.40567
                     331.36901                      90.52120                      39.51959
                     312.99729                      73.83970                      26.04063
                     309.44598                      67.88825                      20.90267
                     268.09044                      52.81400                      12.39593
                     234.48418                      39.49831                       4.44937
                     225.79847                      34.40347                       0.91251
                     204.62962                      24.89684                      -5.13777
                     196.19632                      20.92543                      -7.60781
                     166.10839                      13.97150                      -9.92328
                     156.88769                      11.41756                     -10.92916
                     147.71204                       9.23397                     -11.60061
                     139.43554                       7.39565                     -12.11539
                     128.67057                       5.95291                     -11.94934
                      89.47912                       3.83222                      -8.56258
                      90.43087                       3.89081                      -8.61700
        </DataArray>
        <DataArray type="Float32" Name="Moment" NumberOfComponents="3" format="ascii">
                       0.00000                       0.00000                       0.00000
                       0.00000                       0.00000                       0.00000
                       0.00000                       0.00000                       0.00000
                       0.00000                       0.00000                       0.00000
                      31.27366                    -206.35111                     210.42800
                      31.27120                    -207.00265                     211.10129
                      28.15613                    -187.08779                     190.80147
                      25.60491                    -170.87899                     174.28074
                      22.42087                    -150.38125                     153.38482
                      19.58811                    -132.13661                     134.78566
                      15.56841                    -105.70554                     107.83362
                      13.53015                     -92.53514                      94.40671
                      11.52571                     -79.45211                      81.06710
                       9.79346                     -68.07584                      69.46678
                       8.22194                     -57.63250                      58.81612
                       7.01811                     -49.52083                      50.54195
                       5.76906                     -40.89998                      41.74574
                       2.69206                     -19.15990                      19.55702
                       2.69976                     -19.24406                      19.64329
        </DataArray>
      </PointData>
      <Lines>
        <DataArray type="Int32" Name="connectivity" format="ascii">
      0      1
      1      2
      2      3
      3      4
      4      5
      5      6
      6      7
      7      8
      8      9
      9     10
     10     11
     11     12
     12     13
     13     14
     14     15
     15     16
     16     17
     17     18
        </DataArray>
        <DataArray type="Int32" Name="offsets" format="ascii">
      2
      4
      6
      8
     10
     12
     14
     16
     18
     20
     22
     24
     26
     28
     30
     32
     34
     36
        </DataArray>
      </Lines>
    </Piece>
  </PolyData>
</VTKFile>
