<?xml version="1.0"?>
<VTKFile type="PolyData" version="0.1" byte_order="LittleEndian">
  <PolyData>
    <Piece NumberOfPoints="     19" NumberOfVerts="  0" NumberOfLines="     18"
           NumberOfStrips="  0" NumberOfPolys="      0">
      <Points>
        <DataArray type="Float32" NumberOfComponents="3" format="ascii">
                      -4.96645                      -1.17976                      90.92805
                      -4.95324                      -2.25645                      91.76972
                      -4.95532                      -4.46795                      93.37937
                      -4.97049                      -6.70752                      94.95327
                      -4.99649                      -9.52462                      96.89799
                      -4.96298                     -12.82092                      99.33752
                      -4.89359                     -16.04067                     101.87420
                      -4.82263                     -19.26150                     104.40956
                      -4.74691                     -22.48224                     106.94503
                      -4.66677                     -25.70381                     109.47944
                      -4.58323                     -28.92814                     112.01031
                      -4.49502                     -32.15400                     114.53914
                      -4.40245                     -35.38106                     117.06635
                      -4.30607                     -38.60904                     119.59231
                      -4.20419                     -41.83783                     122.11706
                      -4.11508                     -44.52906                     124.22022
                      -4.04095                     -46.67749                     125.90848
                      -3.96193                     -48.79267                     127.63978
                      -3.92522                     -49.87575                     128.47234
        </DataArray>
      </Points>
      <PointData>
        <DataArray type="Float32" Name="TranslationalVelocity" NumberOfComponents="3" format="ascii">
                      -0.01754                      -0.19496                      -0.24811
                      -0.03738                      -0.37257                      -0.47500
                      -0.07813                      -0.71184                      -0.94116
                      -0.11936                      -1.04345                      -1.41343
                      -0.17117                      -1.45328                      -2.00782
                      -0.23164                      -1.96893                      -2.70384
                      -0.29049                      -2.50618                      -3.38425
                      -0.34910                      -3.04361                      -4.06542
                      -0.40741                      -3.58156                      -4.74709
                      -0.46538                      -4.11973                      -5.42939
                      -0.52302                      -4.65753                      -6.11268
                      -0.58028                      -5.19525                      -6.79662
                      -0.63715                      -5.73292                      -7.48110
                      -0.69362                      -6.27055                      -8.16599
                      -0.74970                      -6.80814                      -8.85122
                      -0.79618                      -7.25613                      -9.42247
                      -0.83312                      -7.61582                      -9.87858
                      -0.86934                      -7.98479                     -10.32770
                      -0.88789                      -8.16221                     -10.55770
        </DataArray>
        <DataArray type="Float32" Name="RotationalVelocity" NumberOfComponents="3" format="ascii">
                       0.21071                       0.00007                      -0.01849
                       0.21073                       0.00008                      -0.01848
                       0.21080                       0.00008                      -0.01848
                       0.21089                       0.00009                      -0.01847
                       0.21102                       0.00011                      -0.01845
                       0.21119                       0.00014                      -0.01842
                       0.21136                       0.00018                      -0.01838
                       0.21152                       0.00023                      -0.01834
                       0.21166                       0.00029                      -0.01828
                       0.21179                       0.00035                      -0.01822
                       0.21190                       0.00042                      -0.01815
                       0.21200                       0.00048                      -0.01807
                       0.21208                       0.00055                      -0.01799
                       0.21214                       0.00060                      -0.01791
                       0.21219                       0.00065                      -0.01783
                       0.21223                       0.00069                      -0.01778
                       0.21225                       0.00071                      -0.01774
                       0.21226                       0.00072                      -0.01771
                       0.21226                       0.00072                      -0.01771
        </DataArray>
        <DataArray type="Float32" Name="TranslationalAcceleration" NumberOfComponents="3" format="ascii">
                       0.00726                       0.04722                      -0.04730
                      -0.00154                       0.05726                      -0.05790
                      -0.00557                       0.16664                      -0.16297
                      -0.01080                       0.26935                      -0.25808
                      -0.01849                       0.39084                      -0.36813
                      -0.02910                       0.52501                      -0.49714
                      -0.04047                       0.65178                      -0.62661
                      -0.05178                       0.77856                      -0.75565
                      -0.06281                       0.90691                      -0.88599
                      -0.07345                       1.03735                      -1.01812
                      -0.08374                       1.16965                      -1.15164
                      -0.09378                       1.30290                      -1.28586
                      -0.10371                       1.43611                      -1.41987
                      -0.11367                       1.56847                      -1.55291
                      -0.12373                       1.69972                      -1.68469
                      -0.13217                       1.80861                      -1.79386
                      -0.13893                       1.89569                      -1.88161
                      -0.14573                       1.98203                      -1.97210
                      -0.14893                       2.02724                      -2.01665
        </DataArray>
        <DataArray type="Float32" Name="OrientationX" NumberOfComponents="3" format="ascii">
                       0.95496                      -0.17544                      -0.23931
                       0.95496                      -0.17537                      -0.23937
                       0.95496                      -0.17516                      -0.23954
                       0.95495                      -0.17485                      -0.23979
                       0.95493                      -0.17437                      -0.24020
                       0.96389                      -0.15473                      -0.21675
                       0.96972                      -0.14019                      -0.19995
                       0.97439                      -0.12727                      -0.18536
                       0.97890                      -0.11355                      -0.16991
                       0.98307                      -0.09934                      -0.15397
                       0.98658                      -0.08575                      -0.13897
                       0.98964                      -0.07217                      -0.12409
                       0.99206                      -0.05970                      -0.11071
                       0.99365                      -0.04995                      -0.10081
                       0.99503                      -0.04037                      -0.09101
                       0.99605                      -0.03245                      -0.08271
                       0.99672                      -0.02661                      -0.07648
                       0.99704                      -0.02333                      -0.07326
                       0.99703                      -0.02315                      -0.07342
        </DataArray>
        <DataArray type="Float32" Name="OrientationY" NumberOfComponents="3" format="ascii">
                       0.29655                       0.59258                       0.74894
                       0.29655                       0.59247                       0.74902
                       0.29656                       0.59218                       0.74925
                       0.29658                       0.59182                       0.74953
                       0.29660                       0.59131                       0.74992
                       0.26604                       0.59590                       0.75771
                       0.24387                       0.59863                       0.76300
                       0.22443                       0.60069                       0.76733
                       0.20382                       0.60268                       0.77151
                       0.18254                       0.60451                       0.77540
                       0.16236                       0.60600                       0.77872
                       0.14230                       0.60727                       0.78165
                       0.12409                       0.60820                       0.78403
                       0.11031                       0.60873                       0.78567
                       0.09671                       0.60916                       0.78713
                       0.08531                       0.60945                       0.78822
                       0.07681                       0.60963                       0.78896
                       0.07227                       0.60970                       0.78933
                       0.07228                       0.60969                       0.78934
        </DataArray>
        <DataArray type="Float32" Name="OrientationZ" NumberOfComponents="3" format="ascii">
                       0.01042                      -0.78617                       0.61792
                       0.01046                      -0.78627                       0.61779
                       0.01061                      -0.78654                       0.61745
                       0.01086                      -0.78688                       0.61701
                       0.01127                      -0.78737                       0.61638
                       0.01192                      -0.78801                       0.61555
                       0.01273                      -0.78866                       0.61470
                       0.01369                      -0.78929                       0.61387
                       0.01480                      -0.78986                       0.61311
                       0.01605                      -0.79038                       0.61241
                       0.01744                      -0.79083                       0.61179
                       0.01894                      -0.79121                       0.61125
                       0.02052                      -0.79154                       0.61078
                       0.02212                      -0.79181                       0.61037
                       0.02366                      -0.79202                       0.61003
                       0.02483                      -0.79216                       0.60981
                       0.02563                      -0.79224                       0.60967
                       0.02626                      -0.79229                       0.60958
                       0.02649                      -0.79230                       0.60955
        </DataArray>
        <DataArray type="Float32" Name="Force" NumberOfComponents="3" format="ascii">
                       2.91889                       0.90839                       1.10652
                      70.80459                       3.85687                       3.70726
                      78.95341                       7.73604                       8.48177
                      61.48950                       8.66146                       9.93286
                     446.35687                    -113.74647                    -152.97529
                     421.89455                     -93.20154                    -126.88504
                     445.62619                     -90.99697                    -125.19294
                     394.65535                     -72.25961                    -100.94164
                     355.48668                     -55.02366                     -78.79782
                     366.43015                     -51.23179                     -75.02905
                     343.75771                     -37.90040                     -58.25774
                     350.51878                     -33.55473                     -53.80569
                     304.12016                     -22.66942                     -39.27685
                     306.03796                     -20.72048                     -37.67311
                     310.41466                     -20.73955                     -38.65151
                     311.32771                     -20.29566                     -38.72326
                     302.32925                     -19.88113                     -38.22218
                     223.62670                     -16.25070                     -30.47299
                     190.91929                     -16.65887                     -29.64038
        </DataArray>
        <DataArray type="Float32" Name="Moment" NumberOfComponents="3" format="ascii">
                       0.00000                       0.00000                       0.00000
                       0.00000                       0.00000                       0.00000
                       0.00000                       0.00000                       0.00000
                       0.00000                       0.00000                       0.00000
                      -3.24319                     223.67253                    -175.77727
                      -3.72027                     241.34949                    -189.64968
                      -3.85902                     233.46275                    -183.42953
                      -4.10960                     230.45333                    -181.03871
                      -4.20475                     217.64469                    -170.94816
                      -4.28915                     204.41761                    -160.52918
                      -3.90579                     171.25359                    -134.45806
                      -3.94921                     159.45966                    -125.17077
                      -3.89650                     145.31711                    -114.04322
                      -3.79636                     131.45657                    -103.14180
                      -3.61247                     117.05280                     -91.82014
                      -3.38852                     104.70814                     -82.12280
                      -2.97233                      89.03261                     -69.82046
                      -1.46180                      42.76274                     -33.53206
                      -0.80434                      23.32860                     -18.29233
        </DataArray>
      </PointData>
      <Lines>
        <DataArray type="Int32" Name="connectivity" format="ascii">
      0      1
      1      2
      2      3
      3      4
      4      5
      5      6
      6      7
      7      8
      8      9
      9     10
     10     11
     11     12
     12     13
     13     14
     14     15
     15     16
     16     17
     17     18
        </DataArray>
        <DataArray type="Int32" Name="offsets" format="ascii">
      2
      4
      6
      8
     10
     12
     14
     16
     18
     20
     22
     24
     26
     28
     30
     32
     34
     36
        </DataArray>
      </Lines>
    </Piece>
  </PolyData>
</VTKFile>
