<?xml version="1.0"?>
<VTKFile type="PolyData" version="0.1" byte_order="LittleEndian">
  <PolyData>
    <Piece NumberOfPoints="     22" NumberOfVerts="  0" NumberOfLines="     21"
           NumberOfStrips="  0" NumberOfPolys="      0">
      <Points>
        <DataArray type="Float32" NumberOfComponents="3" format="ascii">
                       0.00002                      -0.00000                       2.19000
                       0.00016                      -0.00000                       6.57000
                       0.00048                      -0.00001                      10.95000
                       0.00097                      -0.00002                      15.33000
                       0.00162                      -0.00002                      19.71000
                       0.00243                      -0.00004                      24.09000
                       0.00337                      -0.00005                      28.47000
                       0.00443                      -0.00007                      32.85000
                       0.00558                      -0.00010                      37.23000
                       0.00681                      -0.00012                      41.61000
                       0.00811                      -0.00016                      45.99000
                       0.00946                      -0.00020                      50.37000
                       0.01086                      -0.00024                      54.75000
                       0.01231                      -0.00029                      59.13000
                       0.01379                      -0.00035                      63.51000
                       0.01530                      -0.00042                      67.89000
                       0.01684                      -0.00049                      72.27000
                       0.01836                      -0.00057                      76.65000
                       0.01985                      -0.00066                      81.03000
                       0.02124                      -0.00075                      85.41000
                       0.02188                      -0.00080                      87.60000
                       0.00000                       0.00000                       0.00000
        </DataArray>
      </Points>
      <PointData>
        <DataArray type="Float32" Name="TranslationalVelocity" NumberOfComponents="3" format="ascii">
                      -0.00004                       0.00000                       0.00000
                      -0.00038                       0.00002                       0.00000
                      -0.00107                       0.00006                       0.00000
                      -0.00209                       0.00011                       0.00000
                      -0.00340                       0.00016                       0.00000
                      -0.00494                       0.00023                       0.00000
                      -0.00663                       0.00030                       0.00000
                      -0.00838                       0.00037                       0.00000
                      -0.01012                       0.00044                       0.00000
                      -0.01174                       0.00050                       0.00000
                      -0.01316                       0.00055                       0.00000
                      -0.01431                       0.00060                       0.00000
                      -0.01512                       0.00062                       0.00000
                      -0.01554                       0.00063                       0.00000
                      -0.01552                       0.00061                       0.00000
                      -0.01505                       0.00057                       0.00000
                      -0.01412                       0.00050                       0.00000
                      -0.01274                       0.00041                       0.00000
                      -0.01096                       0.00029                       0.00000
                      -0.00882                       0.00015                       0.00000
                      -0.00763                       0.00008                       0.00000
                       0.00000                      -0.00000                       0.00000
        </DataArray>
        <DataArray type="Float32" Name="RotationalVelocity" NumberOfComponents="3" format="ascii">
                      -0.00000                      -0.00004                       0.00000
                      -0.00001                      -0.00012                       0.00000
                      -0.00001                      -0.00020                       0.00000
                      -0.00001                      -0.00027                       0.00000
                      -0.00001                      -0.00033                       0.00000
                      -0.00002                      -0.00037                       0.00000
                      -0.00002                      -0.00040                       0.00000
                      -0.00002                      -0.00040                       0.00000
                      -0.00002                      -0.00039                       0.00000
                      -0.00001                      -0.00035                       0.00000
                      -0.00001                      -0.00030                       0.00000
                      -0.00001                      -0.00023                       0.00000
                      -0.00000                      -0.00014                       0.00000
                       0.00000                      -0.00005                       0.00000
                       0.00001                       0.00006                       0.00000
                       0.00001                       0.00016                       0.00000
                       0.00002                       0.00026                       0.00000
                       0.00002                       0.00036                       0.00000
                       0.00003                       0.00045                       0.00000
                       0.00003                       0.00053                       0.00000
                       0.00003                       0.00056                       0.00000
                       0.00000                      -0.00000                       0.00000
        </DataArray>
        <DataArray type="Float32" Name="TranslationalAcceleration" NumberOfComponents="3" format="ascii">
                      -0.00066                      -0.00009                       0.00000
                      -0.00608                      -0.00075                       0.00000
                      -0.01709                      -0.00193                       0.00000
                      -0.03335                      -0.00353                       0.00000
                      -0.05414                      -0.00544                       0.00001
                      -0.07840                      -0.00757                       0.00001
                      -0.10486                      -0.00982                       0.00001
                      -0.13209                      -0.01209                       0.00002
                      -0.15858                      -0.01427                       0.00003
                      -0.18282                      -0.01623                       0.00003
                      -0.20338                      -0.01786                       0.00004
                      -0.21892                      -0.01902                       0.00004
                      -0.22830                      -0.01959                       0.00005
                      -0.23059                      -0.01943                       0.00005
                      -0.22512                      -0.01845                       0.00004
                      -0.21153                      -0.01656                       0.00004
                      -0.18980                      -0.01374                       0.00003
                      -0.16027                      -0.00999                       0.00002
                      -0.12365                      -0.00541                       0.00001
                      -0.08106                      -0.00017                      -0.00001
                      -0.05799                       0.00261                      -0.00001
                       0.00000                      -0.00000                       0.00000
        </DataArray>
        <DataArray type="Float32" Name="RotationalAcceleration" NumberOfComponents="3" format="ascii">
                       0.00008                      -0.00061                       0.00000
                       0.00021                      -0.00188                       0.00000
                       0.00032                      -0.00313                       0.00000
                       0.00040                      -0.00426                       0.00000
                       0.00046                      -0.00519                       0.00000
                       0.00050                      -0.00584                       0.00000
                       0.00052                      -0.00618                       0.00000
                       0.00051                      -0.00619                       0.00000
                       0.00048                      -0.00585                       0.00000
                       0.00042                      -0.00517                       0.00000
                       0.00032                      -0.00417                       0.00000
                       0.00020                      -0.00288                       0.00000
                       0.00005                      -0.00136                       0.00000
                      -0.00013                       0.00034                       0.00000
                      -0.00032                       0.00217                       0.00000
                      -0.00054                       0.00404                       0.00000
                      -0.00075                       0.00587                       0.00000
                      -0.00096                       0.00759                       0.00000
                      -0.00113                       0.00909                       0.00000
                      -0.00125                       0.01030                       0.00000
                      -0.00128                       0.01076                       0.00000
                       0.00000                      -0.00000                       0.00000
        </DataArray>
        <DataArray type="Float32" Name="OrientationX" NumberOfComponents="3" format="ascii">
                       1.00000                       0.00000                      -0.00002
                       1.00000                       0.00000                      -0.00005
                       1.00000                       0.00000                      -0.00009
                       1.00000                       0.00000                      -0.00013
                       1.00000                       0.00000                      -0.00017
                       1.00000                       0.00000                      -0.00020
                       1.00000                       0.00000                      -0.00023
                       1.00000                       0.00000                      -0.00025
                       1.00000                       0.00000                      -0.00027
                       1.00000                       0.00000                      -0.00029
                       1.00000                       0.00000                      -0.00030
                       1.00000                       0.00000                      -0.00031
                       1.00000                       0.00000                      -0.00032
                       1.00000                       0.00000                      -0.00033
                       1.00000                       0.00000                      -0.00034
                       1.00000                       0.00000                      -0.00035
                       1.00000                       0.00000                      -0.00035
                       1.00000                       0.00000                      -0.00035
                       1.00000                       0.00000                      -0.00033
                       1.00000                       0.00000                      -0.00030
                       1.00000                       0.00000                      -0.00028
                       1.00000                      -0.00000                       0.00000
        </DataArray>
        <DataArray type="Float32" Name="OrientationY" NumberOfComponents="3" format="ascii">
                       0.00000                       1.00000                       0.00000
                       0.00000                       1.00000                       0.00000
                       0.00000                       1.00000                       0.00000
                       0.00000                       1.00000                       0.00000
                       0.00000                       1.00000                       0.00000
                       0.00000                       1.00000                       0.00000
                       0.00000                       1.00000                       0.00000
                       0.00000                       1.00000                       0.00000
                       0.00000                       1.00000                       0.00001
                       0.00000                       1.00000                       0.00001
                       0.00000                       1.00000                       0.00001
                       0.00000                       1.00000                       0.00001
                       0.00000                       1.00000                       0.00001
                       0.00000                       1.00000                       0.00001
                       0.00000                       1.00000                       0.00001
                       0.00000                       1.00000                       0.00002
                       0.00000                       1.00000                       0.00002
                       0.00000                       1.00000                       0.00002
                       0.00000                       1.00000                       0.00002
                       0.00000                       1.00000                       0.00002
                       0.00000                       1.00000                       0.00002
                      -0.00000                       1.00000                      -0.00000
        </DataArray>
        <DataArray type="Float32" Name="OrientationZ" NumberOfComponents="3" format="ascii">
                       0.00002                      -0.00000                       1.00000
                       0.00005                      -0.00000                       1.00000
                       0.00009                      -0.00000                       1.00000
                       0.00013                      -0.00000                       1.00000
                       0.00017                      -0.00000                       1.00000
                       0.00020                      -0.00000                       1.00000
                       0.00023                      -0.00000                       1.00000
                       0.00025                      -0.00000                       1.00000
                       0.00027                      -0.00001                       1.00000
                       0.00029                      -0.00001                       1.00000
                       0.00030                      -0.00001                       1.00000
                       0.00031                      -0.00001                       1.00000
                       0.00032                      -0.00001                       1.00000
                       0.00033                      -0.00001                       1.00000
                       0.00034                      -0.00001                       1.00000
                       0.00035                      -0.00002                       1.00000
                       0.00035                      -0.00002                       1.00000
                       0.00035                      -0.00002                       1.00000
                       0.00033                      -0.00002                       1.00000
                       0.00030                      -0.00002                       1.00000
                       0.00028                      -0.00002                       1.00000
                       0.00000                      -0.00000                       1.00000
        </DataArray>
      </PointData>
      <Lines>
        <DataArray type="Int32" Name="connectivity" format="ascii">
      0      1
      1      2
      2      3
      3      4
      4      5
      5      6
      6      7
      7      8
      8      9
      9     10
     10     11
     11     12
     12     13
     13     14
     14     15
     15     16
     16     17
     17     18
     18     19
     19     20
     21      0
        </DataArray>
        <DataArray type="Int32" Name="offsets" format="ascii">
      2
      4
      6
      8
     10
     12
     14
     16
     18
     20
     22
     24
     26
     28
     30
     32
     34
     36
     38
     40
     42
        </DataArray>
      </Lines>
    </Piece>
  </PolyData>
</VTKFile>
