<?xml version="1.0"?>
<VTKFile type="PolyData" version="0.1" byte_order="LittleEndian">
  <PolyData>
    <Piece NumberOfPoints="     22" NumberOfVerts="  0" NumberOfLines="     21"
           NumberOfStrips="  0" NumberOfPolys="      0">
      <Points>
        <DataArray type="Float32" NumberOfComponents="3" format="ascii">
                       0.00001                      -0.00000                       2.19000
                       0.00013                      -0.00000                       6.57000
                       0.00039                      -0.00001                      10.95000
                       0.00080                      -0.00001                      15.33000
                       0.00134                      -0.00002                      19.71000
                       0.00201                      -0.00003                      24.09000
                       0.00280                      -0.00004                      28.47000
                       0.00368                      -0.00005                      32.85000
                       0.00466                      -0.00007                      37.23000
                       0.00571                      -0.00008                      41.61000
                       0.00683                      -0.00010                      45.99000
                       0.00801                      -0.00013                      50.37000
                       0.00925                      -0.00016                      54.75000
                       0.01054                      -0.00019                      59.13000
                       0.01189                      -0.00022                      63.51000
                       0.01328                      -0.00026                      67.89000
                       0.01470                      -0.00030                      72.27000
                       0.01614                      -0.00034                      76.65000
                       0.01756                      -0.00039                      81.03000
                       0.01891                      -0.00044                      85.41000
                       0.01953                      -0.00047                      87.60000
                       0.00000                       0.00000                       0.00000
        </DataArray>
      </Points>
      <PointData>
        <DataArray type="Float32" Name="TranslationalVelocity" NumberOfComponents="3" format="ascii">
                       0.00000                      -0.00000                      -0.00000
                       0.00001                      -0.00000                      -0.00000
                       0.00003                      -0.00001                      -0.00000
                       0.00005                      -0.00002                      -0.00000
                       0.00009                      -0.00003                      -0.00000
                       0.00014                      -0.00004                      -0.00000
                       0.00019                      -0.00006                      -0.00000
                       0.00026                      -0.00008                      -0.00000
                       0.00034                      -0.00010                      -0.00000
                       0.00042                      -0.00012                      -0.00000
                       0.00051                      -0.00014                      -0.00000
                       0.00062                      -0.00017                      -0.00000
                       0.00073                      -0.00020                      -0.00000
                       0.00085                      -0.00024                      -0.00000
                       0.00098                      -0.00027                      -0.00000
                       0.00113                      -0.00031                      -0.00000
                       0.00128                      -0.00035                      -0.00000
                       0.00144                      -0.00039                      -0.00000
                       0.00160                      -0.00044                      -0.00000
                       0.00176                      -0.00048                      -0.00000
                       0.00183                      -0.00051                      -0.00000
                       0.00000                      -0.00000                       0.00000
        </DataArray>
        <DataArray type="Float32" Name="RotationalVelocity" NumberOfComponents="3" format="ascii">
                       0.00000                       0.00000                       0.00000
                       0.00000                       0.00000                       0.00000
                       0.00000                       0.00001                       0.00000
                       0.00000                       0.00001                       0.00000
                       0.00000                       0.00001                       0.00000
                       0.00000                       0.00001                       0.00000
                       0.00000                       0.00001                       0.00000
                       0.00000                       0.00002                       0.00000
                       0.00000                       0.00002                       0.00000
                       0.00001                       0.00002                       0.00000
                       0.00001                       0.00002                       0.00000
                       0.00001                       0.00002                       0.00000
                       0.00001                       0.00003                       0.00000
                       0.00001                       0.00003                       0.00000
                       0.00001                       0.00003                       0.00000
                       0.00001                       0.00003                       0.00000
                       0.00001                       0.00004                       0.00000
                       0.00001                       0.00004                       0.00000
                       0.00001                       0.00004                       0.00000
                       0.00001                       0.00004                       0.00000
                       0.00001                       0.00003                       0.00000
                       0.00000                      -0.00000                       0.00000
        </DataArray>
        <DataArray type="Float32" Name="TranslationalAcceleration" NumberOfComponents="3" format="ascii">
                      -0.00001                      -0.00000                       0.00000
                      -0.00009                      -0.00000                       0.00000
                      -0.00026                      -0.00000                       0.00000
                      -0.00054                      -0.00000                       0.00000
                      -0.00092                      -0.00001                       0.00000
                      -0.00140                      -0.00001                       0.00000
                      -0.00198                      -0.00001                       0.00000
                      -0.00265                      -0.00002                       0.00000
                      -0.00342                      -0.00002                       0.00000
                      -0.00427                      -0.00002                       0.00000
                      -0.00522                      -0.00003                       0.00000
                      -0.00627                      -0.00004                       0.00000
                      -0.00742                      -0.00004                       0.00000
                      -0.00868                      -0.00005                       0.00000
                      -0.01005                      -0.00006                       0.00000
                      -0.01152                      -0.00007                       0.00000
                      -0.01309                      -0.00008                       0.00000
                      -0.01473                      -0.00008                       0.00000
                      -0.01640                      -0.00009                       0.00000
                      -0.01804                      -0.00010                       0.00000
                      -0.01883                      -0.00011                       0.00001
                       0.00000                      -0.00000                       0.00000
        </DataArray>
        <DataArray type="Float32" Name="RotationalAcceleration" NumberOfComponents="3" format="ascii">
                       0.00000                      -0.00001                       0.00000
                       0.00000                      -0.00003                       0.00000
                       0.00000                      -0.00005                       0.00000
                       0.00000                      -0.00007                       0.00000
                       0.00000                      -0.00010                       0.00000
                       0.00000                      -0.00012                       0.00000
                       0.00000                      -0.00014                       0.00000
                       0.00000                      -0.00016                       0.00000
                       0.00000                      -0.00019                       0.00000
                       0.00000                      -0.00021                       0.00000
                       0.00000                      -0.00023                       0.00000
                       0.00000                      -0.00025                       0.00000
                       0.00000                      -0.00027                       0.00000
                       0.00000                      -0.00030                       0.00000
                       0.00000                      -0.00032                       0.00000
                       0.00000                      -0.00035                       0.00000
                       0.00000                      -0.00037                       0.00000
                       0.00000                      -0.00038                       0.00000
                       0.00000                      -0.00038                       0.00000
                       0.00000                      -0.00037                       0.00000
                       0.00000                      -0.00035                       0.00000
                       0.00000                      -0.00000                       0.00000
        </DataArray>
        <DataArray type="Float32" Name="OrientationX" NumberOfComponents="3" format="ascii">
                       1.00000                       0.00000                      -0.00001
                       1.00000                       0.00000                      -0.00004
                       1.00000                       0.00000                      -0.00008
                       1.00000                       0.00000                      -0.00011
                       1.00000                       0.00000                      -0.00014
                       1.00000                       0.00000                      -0.00017
                       1.00000                       0.00000                      -0.00019
                       1.00000                       0.00000                      -0.00021
                       1.00000                       0.00000                      -0.00023
                       1.00000                       0.00000                      -0.00025
                       1.00000                       0.00000                      -0.00026
                       1.00000                       0.00000                      -0.00028
                       1.00000                       0.00000                      -0.00029
                       1.00000                       0.00000                      -0.00030
                       1.00000                       0.00000                      -0.00031
                       1.00000                       0.00000                      -0.00032
                       1.00000                       0.00000                      -0.00033
                       1.00000                       0.00000                      -0.00033
                       1.00000                       0.00000                      -0.00032
                       1.00000                       0.00000                      -0.00029
                       1.00000                       0.00000                      -0.00028
                       1.00000                      -0.00000                       0.00000
        </DataArray>
        <DataArray type="Float32" Name="OrientationY" NumberOfComponents="3" format="ascii">
                       0.00000                       1.00000                       0.00000
                       0.00000                       1.00000                       0.00000
                       0.00000                       1.00000                       0.00000
                       0.00000                       1.00000                       0.00000
                       0.00000                       1.00000                       0.00000
                       0.00000                       1.00000                       0.00000
                       0.00000                       1.00000                       0.00000
                       0.00000                       1.00000                       0.00000
                       0.00000                       1.00000                       0.00000
                       0.00000                       1.00000                       0.00000
                       0.00000                       1.00000                       0.00001
                       0.00000                       1.00000                       0.00001
                       0.00000                       1.00000                       0.00001
                       0.00000                       1.00000                       0.00001
                       0.00000                       1.00000                       0.00001
                       0.00000                       1.00000                       0.00001
                       0.00000                       1.00000                       0.00001
                       0.00000                       1.00000                       0.00001
                       0.00000                       1.00000                       0.00001
                       0.00000                       1.00000                       0.00001
                       0.00000                       1.00000                       0.00001
                      -0.00000                       1.00000                      -0.00000
        </DataArray>
        <DataArray type="Float32" Name="OrientationZ" NumberOfComponents="3" format="ascii">
                       0.00001                      -0.00000                       1.00000
                       0.00004                      -0.00000                       1.00000
                       0.00008                      -0.00000                       1.00000
                       0.00011                      -0.00000                       1.00000
                       0.00014                      -0.00000                       1.00000
                       0.00017                      -0.00000                       1.00000
                       0.00019                      -0.00000                       1.00000
                       0.00021                      -0.00000                       1.00000
                       0.00023                      -0.00000                       1.00000
                       0.00025                      -0.00000                       1.00000
                       0.00026                      -0.00001                       1.00000
                       0.00028                      -0.00001                       1.00000
                       0.00029                      -0.00001                       1.00000
                       0.00030                      -0.00001                       1.00000
                       0.00031                      -0.00001                       1.00000
                       0.00032                      -0.00001                       1.00000
                       0.00033                      -0.00001                       1.00000
                       0.00033                      -0.00001                       1.00000
                       0.00032                      -0.00001                       1.00000
                       0.00029                      -0.00001                       1.00000
                       0.00028                      -0.00001                       1.00000
                       0.00000                      -0.00000                       1.00000
        </DataArray>
      </PointData>
      <Lines>
        <DataArray type="Int32" Name="connectivity" format="ascii">
      0      1
      1      2
      2      3
      3      4
      4      5
      5      6
      6      7
      7      8
      8      9
      9     10
     10     11
     11     12
     12     13
     13     14
     14     15
     15     16
     16     17
     17     18
     18     19
     19     20
     21      0
        </DataArray>
        <DataArray type="Int32" Name="offsets" format="ascii">
      2
      4
      6
      8
     10
     12
     14
     16
     18
     20
     22
     24
     26
     28
     30
     32
     34
     36
     38
     40
     42
        </DataArray>
      </Lines>
    </Piece>
  </PolyData>
</VTKFile>
