<?xml version="1.0"?>
<VTKFile type="PolyData" version="0.1" byte_order="LittleEndian">
  <PolyData>
    <Piece NumberOfPoints="     19" NumberOfVerts="  0" NumberOfLines="     18"
           NumberOfStrips="  0" NumberOfPolys="      0">
      <Points>
        <DataArray type="Float32" NumberOfComponents="3" format="ascii">
                      -4.92249                      -0.36743                      91.45414
                      -4.86709                      -0.70500                      92.77733
                      -4.78036                      -1.47197                      95.40141
                      -4.70463                      -2.28274                      98.01486
                      -4.61589                      -3.32286                     101.27519
                      -4.45172                      -4.43404                     105.21961
                      -4.25830                      -5.42084                     109.19424
                      -4.06409                      -6.40656                     113.16912
                      -3.86612                      -7.38944                     117.14455
                      -3.66475                      -8.37120                     121.12012
                      -3.46092                      -9.35526                     125.09499
                      -3.25347                     -10.34000                     129.06951
                      -3.04276                     -11.32527                     133.04374
                      -2.82930                     -12.31094                     137.01774
                      -2.61133                     -13.29703                     140.99140
                      -2.42614                     -14.11903                     144.30259
                      -2.27590                     -14.76912                     146.95330
                      -2.12362                     -15.36604                     149.61754
                      -2.04837                     -15.70492                     150.93931
        </DataArray>
      </Points>
      <PointData>
        <DataArray type="Float32" Name="TranslationalVelocity" NumberOfComponents="3" format="ascii">
                      -0.00411                      -0.27996                      -0.07038
                      -0.00976                      -0.53548                      -0.13533
                      -0.02259                      -1.04202                      -0.28296
                      -0.03613                      -1.54665                      -0.43913
                      -0.05344                      -2.17658                      -0.63967
                      -0.07173                      -2.94043                      -0.85419
                      -0.08771                      -3.71150                      -1.04496
                      -0.10340                      -4.48352                      -1.23575
                      -0.11874                      -5.25654                      -1.42620
                      -0.13374                      -6.03038                      -1.61660
                      -0.14845                      -6.80474                      -1.80761
                      -0.16282                      -7.57961                      -1.99888
                      -0.17688                      -8.35486                      -2.19036
                      -0.19064                      -9.13040                      -2.38200
                      -0.20414                      -9.90616                      -2.57378
                      -0.21522                     -10.55280                      -2.73369
                      -0.22387                     -11.07057                      -2.86019
                      -0.23156                     -11.59111                      -2.97638
                      -0.23609                     -11.84940                      -3.04235
        </DataArray>
        <DataArray type="Float32" Name="RotationalVelocity" NumberOfComponents="3" format="ascii">
                       0.19236                       0.00004                      -0.01687
                       0.19240                       0.00004                      -0.01687
                       0.19250                       0.00005                      -0.01687
                       0.19262                       0.00006                      -0.01687
                       0.19280                       0.00009                      -0.01688
                       0.19302                       0.00014                      -0.01688
                       0.19324                       0.00020                      -0.01688
                       0.19345                       0.00028                      -0.01688
                       0.19364                       0.00035                      -0.01687
                       0.19381                       0.00043                      -0.01687
                       0.19395                       0.00052                      -0.01686
                       0.19406                       0.00060                      -0.01686
                       0.19415                       0.00068                      -0.01685
                       0.19422                       0.00075                      -0.01684
                       0.19428                       0.00081                      -0.01683
                       0.19432                       0.00085                      -0.01682
                       0.19434                       0.00087                      -0.01682
                       0.19436                       0.00088                      -0.01681
                       0.19436                       0.00088                      -0.01681
        </DataArray>
        <DataArray type="Float32" Name="TranslationalAcceleration" NumberOfComponents="3" format="ascii">
                       0.01075                       0.00648                      -0.05459
                      -0.00091                       0.00766                      -0.06718
                      -0.00447                       0.02510                      -0.19203
                      -0.00996                       0.04328                      -0.30710
                      -0.01864                       0.06595                      -0.44183
                      -0.03068                       0.08696                      -0.59579
                      -0.04342                       0.10269                      -0.74646
                      -0.05616                       0.11845                      -0.89700
                      -0.06849                       0.13439                      -1.04932
                      -0.08025                       0.15061                      -1.20401
                      -0.09145                       0.16718                      -1.36065
                      -0.10218                       0.18388                      -1.51832
                      -0.11259                       0.20057                      -1.67591
                      -0.12278                       0.21712                      -1.83251
                      -0.13273                       0.23352                      -1.98779
                      -0.14072                       0.24717                      -2.11657
                      -0.14678                       0.25782                      -2.21988
                      -0.15235                       0.26652                      -2.32460
                      -0.15487                       0.27257                      -2.37758
        </DataArray>
        <DataArray type="Float32" Name="OrientationX" NumberOfComponents="3" format="ascii">
                       0.96718                      -0.23357                      -0.10005
                       0.96718                      -0.23356                      -0.10010
                       0.96717                      -0.23352                      -0.10027
                       0.96716                      -0.23346                      -0.10052
                       0.96714                      -0.23337                      -0.10092
                       0.97461                      -0.20311                      -0.09422
                       0.97937                      -0.18112                      -0.08960
                       0.98309                      -0.16180                      -0.08573
                       0.98659                      -0.14133                      -0.08166
                       0.98972                      -0.12019                      -0.07752
                       0.99224                      -0.10014                      -0.07373
                       0.99431                      -0.08022                      -0.07005
                       0.99583                      -0.06211                      -0.06688
                       0.99673                      -0.04833                      -0.06481
                       0.99742                      -0.03477                      -0.06275
                       0.99787                      -0.02344                      -0.06092
                       0.99812                      -0.01501                      -0.05950
                       0.99821                      -0.01047                      -0.05893
                       0.99820                      -0.01044                      -0.05914
        </DataArray>
        <DataArray type="Float32" Name="OrientationY" NumberOfComponents="3" format="ascii">
                       0.25074                       0.94109                       0.22688
                       0.25074                       0.94108                       0.22691
                       0.25075                       0.94106                       0.22701
                       0.25076                       0.94103                       0.22712
                       0.25078                       0.94098                       0.22728
                       0.21984                       0.94789                       0.23060
                       0.19741                       0.95225                       0.23293
                       0.17776                       0.95563                       0.23489
                       0.15695                       0.95879                       0.23683
                       0.13548                       0.96159                       0.23872
                       0.11514                       0.96382                       0.24040
                       0.09495                       0.96562                       0.24198
                       0.07665                       0.96691                       0.24333
                       0.06281                       0.96766                       0.24433
                       0.04918                       0.96821                       0.24527
                       0.03777                       0.96853                       0.24602
                       0.02927                       0.96869                       0.24656
                       0.02473                       0.96874                       0.24684
                       0.02475                       0.96874                       0.24684
        </DataArray>
        <DataArray type="Float32" Name="OrientationZ" NumberOfComponents="3" format="ascii">
                       0.04116                      -0.24452                       0.96877
                       0.04121                      -0.24456                       0.96876
                       0.04135                      -0.24470                       0.96872
                       0.04157                      -0.24487                       0.96866
                       0.04193                      -0.24512                       0.96858
                       0.04247                      -0.24546                       0.96848
                       0.04313                      -0.24581                       0.96836
                       0.04392                      -0.24615                       0.96824
                       0.04482                      -0.24647                       0.96811
                       0.04585                      -0.24677                       0.96799
                       0.04699                      -0.24703                       0.96787
                       0.04823                      -0.24725                       0.96775
                       0.04956                      -0.24744                       0.96763
                       0.05091                      -0.24760                       0.96752
                       0.05223                      -0.24772                       0.96742
                       0.05324                      -0.24780                       0.96735
                       0.05394                      -0.24784                       0.96730
                       0.05450                      -0.24786                       0.96726
                       0.05471                      -0.24786                       0.96725
        </DataArray>
        <DataArray type="Float32" Name="Force" NumberOfComponents="3" format="ascii">
                      13.80807                       1.58571                      -0.18646
                      70.42863                       5.39897                      -1.63305
                      78.22204                      10.89869                      -0.58841
                      60.64066                      12.20047                       0.47693
                     434.60355                    -152.17295                     -57.22600
                     412.16408                    -123.21658                     -49.18226
                     432.72242                    -118.96324                     -49.31303
                     383.62104                     -93.44189                     -40.99772
                     345.17334                     -69.68998                     -33.58331
                     353.14685                     -63.68036                     -32.81378
                     330.69860                     -45.11706                     -27.45677
                     334.94303                     -38.75427                     -26.49073
                     290.14795                     -24.17731                     -20.97421
                     288.21383                     -19.99960                     -20.22516
                     283.73048                     -15.74162                     -19.30204
                     278.03260                     -12.36332                     -18.43287
                     263.79035                      -9.66772                     -17.15960
                     188.07762                      -6.26433                     -12.18485
                     209.09814                     -38.87848                     -21.65769
        </DataArray>
        <DataArray type="Float32" Name="Moment" NumberOfComponents="3" format="ascii">
                       0.00000                       0.00000                       0.00000
                       0.00000                       0.00000                       0.00000
                       0.00000                       0.00000                       0.00000
                       0.00000                       0.00000                       0.00000
                     -12.51688                      72.97966                    -289.12402
                     -13.50841                      77.73982                    -307.96702
                     -13.17287                      74.63048                    -295.63137
                     -13.09822                      72.87585                    -288.66021
                     -12.51584                      68.22479                    -270.21519
                     -11.94514                      63.65288                    -252.08393
                     -10.23759                      53.22495                    -210.76443
                      -9.72599                      49.25840                    -195.03530
                      -9.04859                      44.60566                    -176.59195
                      -8.36794                      40.15501                    -158.95255
                      -7.60858                      35.59073                    -140.86813
                      -6.91596                      31.73704                    -125.60373
                      -5.94949                      26.94766                    -106.64233
                      -2.88721                      12.94340                     -51.21944
                      -1.24597                       5.56408                     -22.01769
        </DataArray>
      </PointData>
      <Lines>
        <DataArray type="Int32" Name="connectivity" format="ascii">
      0      1
      1      2
      2      3
      3      4
      4      5
      5      6
      6      7
      7      8
      8      9
      9     10
     10     11
     11     12
     12     13
     13     14
     14     15
     15     16
     16     17
     17     18
        </DataArray>
        <DataArray type="Int32" Name="offsets" format="ascii">
      2
      4
      6
      8
     10
     12
     14
     16
     18
     20
     22
     24
     26
     28
     30
     32
     34
     36
        </DataArray>
      </Lines>
    </Piece>
  </PolyData>
</VTKFile>
