<?xml version="1.0"?>
<VTKFile type="PolyData" version="0.1" byte_order="LittleEndian">
  <PolyData>
    <Piece NumberOfPoints="     19" NumberOfVerts="  0" NumberOfLines="     18"
           NumberOfStrips="  0" NumberOfPolys="      0">
      <Points>
        <DataArray type="Float32" NumberOfComponents="3" format="ascii">
                      -5.16406                       0.72321                      88.69964
                      -5.32850                       1.38577                      87.51561
                      -5.67531                       2.79279                      85.19568
                      -6.03035                       4.23820                      82.89811
                      -6.47865                       6.06727                      80.03885
                      -6.96899                       8.13628                      76.53115
                      -7.43938                      10.08997                      72.95674
                      -7.91028                      12.03949                      69.38016
                      -8.37907                      13.98349                      65.80031
                      -8.84623                      15.92385                      62.21830
                      -9.31264                      17.86403                      58.63616
                      -9.77742                      19.80300                      55.05319
                     -10.24103                      21.74101                      51.46959
                     -10.70404                      23.67828                      47.88555
                     -11.16466                      25.61511                      44.30100
                     -11.54659                      27.22884                      41.31346
                     -11.85146                      28.51266                      38.91950
                     -12.15856                      29.74793                      36.49917
                     -12.31059                      30.40200                      35.30893
        </DataArray>
      </Points>
      <PointData>
        <DataArray type="Float32" Name="TranslationalVelocity" NumberOfComponents="3" format="ascii">
                      -0.00354                       0.13991                       0.07597
                       0.00286                       0.26725                       0.14634
                       0.01639                       0.51690                       0.29573
                       0.03026                       0.76411                       0.44910
                       0.04775                       1.07160                       0.64304
                       0.06749                       1.44793                       0.86220
                       0.08607                       1.83074                       1.06893
                       0.10450                       2.21339                       1.27502
                       0.12276                       2.59600                       1.48035
                       0.14088                       2.97849                       1.68515
                       0.15891                       3.36071                       1.88980
                       0.17686                       3.74279                       2.09422
                       0.19475                       4.12476                       2.29846
                       0.21261                       4.50664                       2.50256
                       0.23048                       4.88847                       2.70657
                       0.24540                       5.20662                       2.87652
                       0.25730                       5.46152                       3.01169
                       0.26879                       5.71916                       3.14173
                       0.27489                       5.84586                       3.21057
        </DataArray>
        <DataArray type="Float32" Name="RotationalVelocity" NumberOfComponents="3" format="ascii">
                       0.10627                      -0.00019                      -0.00932
                       0.10626                      -0.00019                      -0.00932
                       0.10621                      -0.00019                      -0.00931
                       0.10615                      -0.00018                      -0.00930
                       0.10606                      -0.00017                      -0.00928
                       0.10595                      -0.00016                      -0.00926
                       0.10585                      -0.00014                      -0.00923
                       0.10575                      -0.00012                      -0.00921
                       0.10566                      -0.00010                      -0.00919
                       0.10558                      -0.00008                      -0.00917
                       0.10551                      -0.00007                      -0.00915
                       0.10546                      -0.00006                      -0.00914
                       0.10542                      -0.00005                      -0.00913
                       0.10539                      -0.00005                      -0.00913
                       0.10536                      -0.00006                      -0.00913
                       0.10534                      -0.00007                      -0.00913
                       0.10533                      -0.00008                      -0.00913
                       0.10532                      -0.00009                      -0.00913
                       0.10532                      -0.00010                      -0.00914
        </DataArray>
        <DataArray type="Float32" Name="TranslationalAcceleration" NumberOfComponents="3" format="ascii">
                      -0.00898                      -0.00172                       0.01668
                      -0.00106                      -0.00341                       0.02103
                      -0.00167                      -0.01082                       0.06009
                      -0.00068                      -0.01861                       0.09610
                       0.00210                      -0.02841                       0.13823
                       0.00681                      -0.03825                       0.18619
                       0.01219                      -0.04643                       0.23286
                       0.01764                      -0.05471                       0.27919
                       0.02287                      -0.06315                       0.32582
                       0.02783                      -0.07180                       0.37295
                       0.03262                      -0.08067                       0.42047
                       0.03741                      -0.08966                       0.46811
                       0.04243                      -0.09871                       0.51555
                       0.04786                      -0.10779                       0.56253
                       0.05381                      -0.11686                       0.60896
                       0.05915                      -0.12446                       0.64735
                       0.06358                      -0.13047                       0.67810
                       0.06803                      -0.13589                       0.70930
                       0.07019                      -0.13910                       0.72503
        </DataArray>
        <DataArray type="Float32" Name="OrientationX" NumberOfComponents="3" format="ascii">
                       0.97497                       0.22205                      -0.01116
                       0.97497                       0.22204                      -0.01114
                       0.97498                       0.22201                      -0.01109
                       0.97499                       0.22196                      -0.01100
                       0.97501                       0.22190                      -0.01086
                       0.98052                       0.19463                      -0.02645
                       0.98389                       0.17477                      -0.03752
                       0.98643                       0.15730                      -0.04705
                       0.98868                       0.13874                      -0.05703
                       0.99055                       0.11956                      -0.06720
                       0.99190                       0.10132                      -0.07667
                       0.99282                       0.08315                      -0.08595
                       0.99332                       0.06662                      -0.09420
                       0.99350                       0.05398                      -0.10023
                       0.99348                       0.04154                      -0.10614
                       0.99332                       0.03115                      -0.11110
                       0.99311                       0.02344                      -0.11481
                       0.99298                       0.01927                      -0.11668
                       0.99300                       0.01923                      -0.11655
        </DataArray>
        <DataArray type="Float32" Name="OrientationY" NumberOfComponents="3" format="ascii">
                       0.18725                      -0.84719                      -0.49720
                       0.18727                      -0.84724                      -0.49711
                       0.18730                      -0.84737                      -0.49688
                       0.18734                      -0.84753                      -0.49659
                       0.18741                      -0.84776                      -0.49617
                       0.15630                      -0.85469                      -0.49505
                       0.13379                      -0.85922                      -0.49380
                       0.11410                      -0.86282                      -0.49246
                       0.09323                      -0.86620                      -0.49093
                       0.07172                      -0.86922                      -0.48920
                       0.05136                      -0.87167                      -0.48740
                       0.03115                      -0.87369                      -0.48549
                       0.01283                      -0.87519                      -0.48361
                      -0.00104                      -0.87612                      -0.48209
                      -0.01468                      -0.87685                      -0.48054
                      -0.02609                      -0.87731                      -0.47921
                      -0.03457                      -0.87758                      -0.47819
                      -0.03909                      -0.87770                      -0.47762
                      -0.03906                      -0.87770                      -0.47761
        </DataArray>
        <DataArray type="Float32" Name="OrientationZ" NumberOfComponents="3" format="ascii">
                      -0.11986                       0.48266                      -0.86756
                      -0.11982                       0.48258                      -0.86762
                      -0.11970                       0.48237                      -0.86775
                      -0.11955                       0.48211                      -0.86792
                      -0.11931                       0.48174                      -0.86815
                      -0.11895                       0.48128                      -0.86846
                      -0.11854                       0.48082                      -0.86877
                      -0.11806                       0.48041                      -0.86906
                      -0.11751                       0.48005                      -0.86933
                      -0.11690                       0.47976                      -0.86958
                      -0.11621                       0.47951                      -0.86981
                      -0.11546                       0.47932                      -0.87001
                      -0.11466                       0.47918                      -0.87020
                      -0.11384                       0.47906                      -0.87037
                      -0.11303                       0.47897                      -0.87053
                      -0.11240                       0.47890                      -0.87064
                      -0.11196                       0.47886                      -0.87072
                      -0.11161                       0.47883                      -0.87078
                      -0.11148                       0.47882                      -0.87081
        </DataArray>
        <DataArray type="Float32" Name="Force" NumberOfComponents="3" format="ascii">
                      60.88142                       3.17368                      -6.64560
                      53.89232                       3.90733                      -5.26901
                      64.61826                       3.13992                      -7.16775
                      51.67747                       0.47379                      -6.85549
                     313.16921                     100.23020                      12.71247
                     300.51190                      82.25768                       4.58431
                     297.57119                      75.42482                       1.33689
                     258.11565                      58.37667                      -2.61137
                     225.50777                      43.10207                      -6.52826
                     215.38507                      36.93138                      -8.43357
                     194.67222                      26.12712                     -11.49826
                     184.81084                      21.37947                     -12.65662
                     155.74273                      13.87250                     -12.82383
                     145.62047                      10.96320                     -12.96556
                     135.54824                       8.46065                     -12.90959
                     127.04136                       6.60427                     -12.74279
                     116.30172                       5.05358                     -12.15748
                      80.21617                       3.12867                      -8.55058
                      80.72695                       3.15816                      -8.58697
        </DataArray>
        <DataArray type="Float32" Name="Moment" NumberOfComponents="3" format="ascii">
                       0.00000                       0.00000                       0.00000
                       0.00000                       0.00000                       0.00000
                       0.00000                       0.00000                       0.00000
                       0.00000                       0.00000                       0.00000
                      34.29469                    -138.79823                     249.49770
                      34.67147                    -140.76790                     253.04794
                      31.28421                    -127.48688                     229.18382
                      28.38623                    -116.16884                     208.84790
                      24.74440                    -101.75299                     182.94159
                      21.47557                     -88.78995                     159.64557
                      16.97134                     -70.59112                     126.93280
                      14.62584                     -61.23781                     110.12273
                      12.35570                     -52.09961                      93.69736
                      10.40262                     -44.18646                      79.47284
                       8.64639                     -36.99332                      66.54091
                       7.32237                     -31.50535                      56.67316
                       5.97474                     -25.80869                      46.42785
                       2.76658                     -11.98874                      21.56760
                       2.76330                     -11.98914                      21.56862
        </DataArray>
      </PointData>
      <Lines>
        <DataArray type="Int32" Name="connectivity" format="ascii">
      0      1
      1      2
      2      3
      3      4
      4      5
      5      6
      6      7
      7      8
      8      9
      9     10
     10     11
     11     12
     12     13
     13     14
     14     15
     15     16
     16     17
     17     18
        </DataArray>
        <DataArray type="Int32" Name="offsets" format="ascii">
      2
      4
      6
      8
     10
     12
     14
     16
     18
     20
     22
     24
     26
     28
     30
     32
     34
     36
        </DataArray>
      </Lines>
    </Piece>
  </PolyData>
</VTKFile>
