<?xml version="1.0"?>
<VTKFile type="PolyData" version="0.1" byte_order="LittleEndian">
  <PolyData>
    <Piece NumberOfPoints="     19" NumberOfVerts="  0" NumberOfLines="     18"
           NumberOfStrips="  0" NumberOfPolys="      0">
      <Points>
        <DataArray type="Float32" NumberOfComponents="3" format="ascii">
                      -4.92100                      -0.29276                      91.47094
                      -4.86425                      -0.56220                      92.80960
                      -4.77439                      -1.19397                      95.46937
                      -4.69535                      -1.86999                      98.12078
                      -4.60236                      -2.74185                     101.42997
                      -4.43375                      -3.64920                     105.42605
                      -4.23650                      -4.43042                     109.44599
                      -4.03853                      -5.21030                     113.46617
                      -3.83689                      -5.98707                     117.48680
                      -3.63193                      -6.76251                     121.50754
                      -3.42458                      -7.54009                     125.52774
                      -3.21369                      -8.31823                     129.54766
                      -2.99961                      -9.09678                     133.56732
                      -2.78286                      -9.87566                     137.58680
                      -2.56164                     -10.65489                     141.60598
                      -2.37379                     -11.30447                     144.95511
                      -2.22147                     -11.81650                     147.63579
                      -2.06736                     -12.27470                     150.32726
                      -1.99101                     -12.54469                     151.66474
        </DataArray>
      </Points>
      <PointData>
        <DataArray type="Float32" Name="TranslationalVelocity" NumberOfComponents="3" format="ascii">
                      -0.00705                      -0.28135                      -0.05594
                      -0.01161                      -0.53799                      -0.10740
                      -0.02228                      -1.04774                      -0.22812
                      -0.03368                      -1.55603                      -0.35739
                      -0.04831                      -2.19085                      -0.52428
                      -0.06343                      -2.95919                      -0.69821
                      -0.07625                      -3.73352                      -0.84818
                      -0.08883                      -4.50882                      -0.99807
                      -0.10111                      -5.28513                      -1.14753
                      -0.11312                      -6.06227                      -1.29687
                      -0.12489                      -6.84000                      -1.44674
                      -0.13641                      -7.61825                      -1.59683
                      -0.14768                      -8.39691                      -1.74707
                      -0.15873                      -9.17588                      -1.89744
                      -0.16959                      -9.95509                      -2.04793
                      -0.17852                     -10.60461                      -2.17342
                      -0.18549                     -11.12461                      -2.27235
                      -0.19152                     -11.64683                      -2.36092
                      -0.19522                     -11.90638                      -2.41310
        </DataArray>
        <DataArray type="Float32" Name="RotationalVelocity" NumberOfComponents="3" format="ascii">
                       0.19097                      -0.00004                      -0.01675
                       0.19100                      -0.00004                      -0.01675
                       0.19110                      -0.00003                      -0.01675
                       0.19123                      -0.00002                      -0.01676
                       0.19141                       0.00001                      -0.01676
                       0.19164                       0.00005                      -0.01677
                       0.19187                       0.00010                      -0.01677
                       0.19208                       0.00016                      -0.01678
                       0.19227                       0.00022                      -0.01678
                       0.19244                       0.00029                      -0.01678
                       0.19258                       0.00035                      -0.01679
                       0.19270                       0.00042                      -0.01679
                       0.19279                       0.00048                      -0.01679
                       0.19287                       0.00053                      -0.01678
                       0.19293                       0.00057                      -0.01678
                       0.19297                       0.00060                      -0.01678
                       0.19299                       0.00061                      -0.01677
                       0.19301                       0.00061                      -0.01677
                       0.19301                       0.00061                      -0.01677
        </DataArray>
        <DataArray type="Float32" Name="TranslationalAcceleration" NumberOfComponents="3" format="ascii">
                       0.01050                       0.00400                      -0.05402
                      -0.00093                       0.00421                      -0.06651
                      -0.00450                       0.01514                      -0.19027
                      -0.00996                       0.02723                      -0.30447
                      -0.01854                       0.04271                      -0.43824
                      -0.03034                       0.05557                      -0.59086
                      -0.04274                       0.06342                      -0.73998
                      -0.05504                       0.07137                      -0.88897
                      -0.06685                       0.07948                      -1.03973
                      -0.07806                       0.08785                      -1.19282
                      -0.08870                       0.09655                      -1.34785
                      -0.09893                       0.10541                      -1.50390
                      -0.10895                       0.11432                      -1.65985
                      -0.11896                       0.12322                      -1.81480
                      -0.12906                       0.13207                      -1.96842
                      -0.13752                       0.13948                      -2.09581
                      -0.14423                       0.14514                      -2.19797
                      -0.15075                       0.14883                      -2.30142
                      -0.15387                       0.15231                      -2.35383
        </DataArray>
        <DataArray type="Float32" Name="OrientationX" NumberOfComponents="3" format="ascii">
                       0.96822                      -0.23404                      -0.08813
                       0.96822                      -0.23403                      -0.08818
                       0.96821                      -0.23400                      -0.08834
                       0.96820                      -0.23396                      -0.08858
                       0.96818                      -0.23390                      -0.08897
                       0.97552                      -0.20330                      -0.08380
                       0.98019                      -0.18108                      -0.08028
                       0.98382                      -0.16158                      -0.07738
                       0.98723                      -0.14091                      -0.07434
                       0.99026                      -0.11958                      -0.07126
                       0.99269                      -0.09936                      -0.06849
                       0.99468                      -0.07926                      -0.06582
                       0.99611                      -0.06102                      -0.06356
                       0.99695                      -0.04714                      -0.06219
                       0.99759                      -0.03349                      -0.06081
                       0.99798                      -0.02208                      -0.05956
                       0.99819                      -0.01359                      -0.05857
                       0.99826                      -0.00903                      -0.05823
                       0.99825                      -0.00901                      -0.05844
        </DataArray>
        <DataArray type="Float32" Name="OrientationY" NumberOfComponents="3" format="ascii">
                       0.24651                       0.95254                       0.17859
                       0.24651                       0.95254                       0.17862
                       0.24652                       0.95252                       0.17869
                       0.24653                       0.95250                       0.17878
                       0.24654                       0.95248                       0.17890
                       0.21557                       0.95941                       0.18181
                       0.19311                       0.96380                       0.18386
                       0.17345                       0.96720                       0.18559
                       0.15261                       0.97037                       0.18733
                       0.13112                       0.97318                       0.18903
                       0.11078                       0.97541                       0.19056
                       0.09058                       0.97720                       0.19201
                       0.07227                       0.97848                       0.19328
                       0.05842                       0.97922                       0.19422
                       0.04479                       0.97976                       0.19511
                       0.03337                       0.98007                       0.19584
                       0.02487                       0.98022                       0.19636
                       0.02033                       0.98027                       0.19663
                       0.02036                       0.98027                       0.19663
        </DataArray>
        <DataArray type="Float32" Name="OrientationZ" NumberOfComponents="3" format="ascii">
                       0.04214                      -0.19464                       0.97997
                       0.04219                      -0.19468                       0.97996
                       0.04233                      -0.19479                       0.97993
                       0.04255                      -0.19493                       0.97989
                       0.04290                      -0.19514                       0.97984
                       0.04343                      -0.19542                       0.97976
                       0.04408                      -0.19572                       0.97967
                       0.04485                      -0.19601                       0.97958
                       0.04574                      -0.19628                       0.97948
                       0.04675                      -0.19653                       0.97938
                       0.04787                      -0.19676                       0.97928
                       0.04910                      -0.19695                       0.97918
                       0.05040                      -0.19712                       0.97908
                       0.05174                      -0.19726                       0.97899
                       0.05304                      -0.19736                       0.97889
                       0.05405                      -0.19743                       0.97883
                       0.05474                      -0.19746                       0.97878
                       0.05530                      -0.19747                       0.97875
                       0.05552                      -0.19747                       0.97874
        </DataArray>
        <DataArray type="Float32" Name="Force" NumberOfComponents="3" format="ascii">
                      15.05354                       1.55547                      -0.33844
                      70.45949                       5.29138                      -1.98242
                      78.21856                      10.79782                      -1.23444
                      60.60659                      12.13370                      -0.22160
                     433.57719                    -152.27845                     -49.23200
                     410.99508                    -123.18613                     -42.69216
                     431.55904                    -118.88055                     -43.03972
                     382.30341                     -93.21243                     -36.02701
                     344.26438                     -69.51640                     -29.89222
                     351.75942                     -63.31775                     -29.37587
                     329.65530                     -44.88788                     -25.03973
                     333.54893                     -38.37600                     -24.35697
                     288.90142                     -23.76204                     -19.60016
                     286.99212                     -19.69707                     -19.08792
                     282.33292                     -15.35597                     -18.35688
                     276.52048                     -11.92453                     -17.64438
                     262.25964                      -9.20832                     -16.50418
                     186.93629                      -5.90300                     -11.73962
                     209.16286                     -39.70632                     -19.76353
        </DataArray>
        <DataArray type="Float32" Name="Moment" NumberOfComponents="3" format="ascii">
                       0.00000                       0.00000                       0.00000
                       0.00000                       0.00000                       0.00000
                       0.00000                       0.00000                       0.00000
                       0.00000                       0.00000                       0.00000
                     -12.85807                      58.33229                    -293.66501
                     -13.85067                      62.05725                    -312.40272
                     -13.48874                      59.53765                    -299.70121
                     -13.38624                      58.07001                    -292.29321
                     -12.77296                      54.33232                    -273.45794
                     -12.17020                      50.65084                    -254.90581
                     -10.42233                      42.35710                    -213.14517
                      -9.88662                      39.17532                    -197.11246
                      -9.18471                      35.45267                    -178.36093
                      -8.48678                      31.91269                    -160.53224
                      -7.70856                      28.27387                    -142.21105
                      -7.00181                      25.20538                    -126.76587
                      -6.02075                      21.39818                    -107.61157
                      -2.92132                      10.27807                     -51.68589
                      -1.24933                       4.37874                     -22.01919
        </DataArray>
      </PointData>
      <Lines>
        <DataArray type="Int32" Name="connectivity" format="ascii">
      0      1
      1      2
      2      3
      3      4
      4      5
      5      6
      6      7
      7      8
      8      9
      9     10
     10     11
     11     12
     12     13
     13     14
     14     15
     15     16
     16     17
     17     18
        </DataArray>
        <DataArray type="Int32" Name="offsets" format="ascii">
      2
      4
      6
      8
     10
     12
     14
     16
     18
     20
     22
     24
     26
     28
     30
     32
     34
     36
        </DataArray>
      </Lines>
    </Piece>
  </PolyData>
</VTKFile>
