<?xml version="1.0"?>
<VTKFile type="PolyData" version="0.1" byte_order="LittleEndian">
  <PolyData>
    <Piece NumberOfPoints="     19" NumberOfVerts="  0" NumberOfLines="     18"
           NumberOfStrips="  0" NumberOfPolys="      0">
      <Points>
        <DataArray type="Float32" NumberOfComponents="3" format="ascii">
                      -5.15920                       0.72726                      88.70224
                      -5.32357                       1.39338                      87.52021
                      -5.67016                       2.80740                      85.20450
                      -6.02490                       4.25974                      82.91125
                      -6.47269                       6.09745                      80.05745
                      -6.96223                       8.17704                      76.55589
                      -7.43155                      10.14153                      72.98725
                      -7.90097                      12.10188                      69.41638
                      -8.36779                      14.05676                      65.84218
                      -8.83236                      16.00806                      62.26577
                      -9.29551                      17.95922                      58.68915
                      -9.75622                      19.90923                      55.11163
                     -10.21489                      21.85834                      51.53340
                     -10.67203                      23.80677                      47.95464
                     -11.12580                      25.75480                      44.37527
                     -11.50123                      27.37789                      41.39198
                     -11.80042                      28.66923                      39.00135
                     -12.10143                      29.91211                      36.58415
                     -12.25025                      30.56993                      35.39556
        </DataArray>
      </Points>
      <PointData>
        <DataArray type="Float32" Name="TranslationalVelocity" NumberOfComponents="3" format="ascii">
                       0.00553                       0.22415                       0.12391
                       0.01564                       0.42860                       0.23772
                       0.03705                       0.82937                       0.47924
                       0.05900                       1.22620                       0.72715
                       0.08669                       1.71976                       1.04060
                       0.11789                       2.32390                       1.39494
                       0.14719                       2.93850                       1.72932
                       0.17621                       3.55282                       2.06266
                       0.20492                       4.16705                       2.39478
                       0.23336                       4.78107                       2.72604
                       0.26158                       5.39463                       3.05706
                       0.28958                       6.00794                       3.38772
                       0.31739                       6.62105                       3.71810
                       0.34505                       7.23400                       4.04827
                       0.37261                       7.84685                       4.37831
                       0.39554                       8.35749                       4.65324
                       0.41377                       8.76660                       4.87194
                       0.43130                       9.18017                       5.08240
                       0.44062                       9.38351                       5.19377
        </DataArray>
        <DataArray type="Float32" Name="RotationalVelocity" NumberOfComponents="3" format="ascii">
                       0.17091                      -0.00010                      -0.01500
                       0.17089                      -0.00010                      -0.01500
                       0.17081                      -0.00009                      -0.01498
                       0.17071                      -0.00009                      -0.01497
                       0.17057                      -0.00007                      -0.01494
                       0.17039                      -0.00004                      -0.01490
                       0.17021                      -0.00001                      -0.01486
                       0.17004                       0.00003                      -0.01482
                       0.16989                       0.00007                      -0.01478
                       0.16976                       0.00012                      -0.01474
                       0.16965                       0.00016                      -0.01470
                       0.16956                       0.00019                      -0.01468
                       0.16949                       0.00022                      -0.01465
                       0.16943                       0.00025                      -0.01463
                       0.16938                       0.00026                      -0.01462
                       0.16935                       0.00027                      -0.01461
                       0.16933                       0.00026                      -0.01461
                       0.16932                       0.00025                      -0.01461
                       0.16932                       0.00025                      -0.01461
        </DataArray>
        <DataArray type="Float32" Name="TranslationalAcceleration" NumberOfComponents="3" format="ascii">
                      -0.00857                      -0.01480                       0.04069
                       0.00101                      -0.01849                       0.05010
                       0.00439                      -0.05526                       0.14251
                       0.00926                      -0.09069                       0.22717
                       0.01678                      -0.13304                       0.32583
                       0.02724                      -0.17733                       0.43908
                       0.03840                      -0.21655                       0.55034
                       0.04959                      -0.25537                       0.66108
                       0.06054                      -0.29429                       0.77277
                       0.07116                      -0.33354                       0.88588
                       0.08149                      -0.37315                       1.00012
                       0.09165                      -0.41283                       1.11489
                       0.10182                      -0.45231                       1.22940
                       0.11211                      -0.49139                       1.34301
                       0.12256                      -0.53001                       1.45551
                       0.13131                      -0.56201                       1.54870
                       0.13826                      -0.58742                       1.62346
                       0.14504                      -0.61160                       1.69957
                       0.14825                      -0.62504                       1.73780
        </DataArray>
        <DataArray type="Float32" Name="OrientationX" NumberOfComponents="3" format="ascii">
                       0.97503                       0.22183                      -0.01059
                       0.97503                       0.22181                      -0.01056
                       0.97504                       0.22177                      -0.01049
                       0.97506                       0.22172                      -0.01038
                       0.97508                       0.22162                      -0.01020
                       0.98059                       0.19436                      -0.02581
                       0.98397                       0.17449                      -0.03687
                       0.98651                       0.15698                      -0.04637
                       0.98878                       0.13839                      -0.05630
                       0.99065                       0.11915                      -0.06639
                       0.99201                       0.10085                      -0.07576
                       0.99296                       0.08261                      -0.08491
                       0.99347                       0.06599                      -0.09302
                       0.99367                       0.05325                      -0.09888
                       0.99368                       0.04071                      -0.10461
                       0.99353                       0.03025                      -0.10944
                       0.99334                       0.02248                      -0.11304
                       0.99322                       0.01825                      -0.11482
                       0.99324                       0.01818                      -0.11465
        </DataArray>
        <DataArray type="Float32" Name="OrientationY" NumberOfComponents="3" format="ascii">
                       0.18699                      -0.84575                      -0.49974
                       0.18700                      -0.84580                      -0.49965
                       0.18704                      -0.84593                      -0.49941
                       0.18708                      -0.84610                      -0.49912
                       0.18714                      -0.84633                      -0.49869
                       0.15602                      -0.85327                      -0.49758
                       0.13351                      -0.85780                      -0.49633
                       0.11381                      -0.86141                      -0.49500
                       0.09294                      -0.86478                      -0.49347
                       0.07142                      -0.86780                      -0.49175
                       0.05105                      -0.87024                      -0.48997
                       0.03083                      -0.87226                      -0.48807
                       0.01251                      -0.87375                      -0.48622
                      -0.00135                      -0.87467                      -0.48471
                      -0.01500                      -0.87539                      -0.48318
                      -0.02641                      -0.87585                      -0.48186
                      -0.03490                      -0.87610                      -0.48086
                      -0.03942                      -0.87622                      -0.48030
                      -0.03940                      -0.87623                      -0.48028
        </DataArray>
        <DataArray type="Float32" Name="OrientationZ" NumberOfComponents="3" format="ascii">
                      -0.11981                       0.48528                      -0.86611
                      -0.11976                       0.48520                      -0.86616
                      -0.11963                       0.48499                      -0.86630
                      -0.11944                       0.48472                      -0.86647
                      -0.11916                       0.48436                      -0.86672
                      -0.11874                       0.48390                      -0.86703
                      -0.11823                       0.48345                      -0.86735
                      -0.11765                       0.48305                      -0.86765
                      -0.11697                       0.48270                      -0.86794
                      -0.11621                       0.48242                      -0.86820
                      -0.11534                       0.48219                      -0.86844
                      -0.11439                       0.48201                      -0.86867
                      -0.11336                       0.48188                      -0.86887
                      -0.11230                       0.48178                      -0.86907
                      -0.11125                       0.48169                      -0.86925
                      -0.11043                       0.48164                      -0.86939
                      -0.10985                       0.48160                      -0.86948
                      -0.10937                       0.48157                      -0.86956
                      -0.10919                       0.48155                      -0.86959
        </DataArray>
        <DataArray type="Float32" Name="Force" NumberOfComponents="3" format="ascii">
                      29.77075                       1.47448                      -3.29202
                      53.73536                       2.67756                      -5.92975
                      64.45558                       0.37704                      -8.69007
                      51.69818                      -2.74607                      -8.66616
                     350.25112                     112.31414                      14.76089
                     334.83147                      92.44099                       5.91944
                     343.52968                      87.68759                       2.27378
                     298.95536                      68.08175                      -2.42042
                     262.74287                      50.32641                      -7.24217
                     260.67098                      44.78138                      -9.83101
                     238.30852                      31.78819                     -13.86986
                     235.27077                      26.93861                     -15.91795
                     198.92962                      16.88352                     -16.52006
                     193.30479                      13.94433                     -17.18999
                     186.55382                      11.14484                     -17.65404
                     180.21968                       9.12853                     -17.79814
                     171.82508                       8.88974                     -16.74823
                     124.56220                       7.59190                     -11.43027
                     142.03208                      23.12498                      -4.90508
        </DataArray>
        <DataArray type="Float32" Name="Moment" NumberOfComponents="3" format="ascii">
                       0.00000                       0.00000                       0.00000
                       0.00000                       0.00000                       0.00000
                       0.00000                       0.00000                       0.00000
                       0.00000                       0.00000                       0.00000
                      33.01937                    -134.52847                     240.11961
                      33.68946                    -137.77469                     245.92490
                      30.85618                    -126.75086                     226.25969
                      28.65338                    -118.31172                     211.20822
                      25.59892                    -106.32891                     189.83007
                      22.85814                     -95.58886                     170.66937
                      18.37984                     -77.44888                     138.29362
                      16.34051                     -69.43859                     124.00249
                      14.22440                     -60.99982                     108.94409
                      12.34286                     -53.43813                      95.44949
                      10.56150                     -46.16280                      82.46338
                       9.16285                     -40.34997                      72.08561
                       7.62086                     -33.73809                      60.27697
                       3.58861                     -15.95627                      28.50908
                       2.39993                     -10.68914                      19.09866
        </DataArray>
      </PointData>
      <Lines>
        <DataArray type="Int32" Name="connectivity" format="ascii">
      0      1
      1      2
      2      3
      3      4
      4      5
      5      6
      6      7
      7      8
      8      9
      9     10
     10     11
     11     12
     12     13
     13     14
     14     15
     15     16
     16     17
     17     18
        </DataArray>
        <DataArray type="Int32" Name="offsets" format="ascii">
      2
      4
      6
      8
     10
     12
     14
     16
     18
     20
     22
     24
     26
     28
     30
     32
     34
     36
        </DataArray>
      </Lines>
    </Piece>
  </PolyData>
</VTKFile>
